{
    "m_SelectedDeviceId": "07569251BO000114",
    "m_SelectedPackage": {
        "deviceId": "",
        "name": "",
        "processId": 0,
        "exited": false
    },
    "m_SelectedPriority": 0,
    "m_KnownPackagesForSerialization": [
        {
            "deviceId": "07569251BO000114",
            "name": "com.transsion.XOSLauncher",
            "processId": 26118,
            "exited": true
        },
        {
            "deviceId": "07569251BO000114",
            "name": "com.thaipet.cubic",
            "processId": 16338,
            "exited": true
        },
        {
            "deviceId": "07569251BO000114",
            "name": "com.thaipet.cubic",
            "processId": 19050,
            "exited": true
        },
        {
            "deviceId": "07569251BO000114",
            "name": "com.thaipet.cubic",
            "processId": 2679,
            "exited": false
        }
    ],
    "m_Tags": {
        "m_Entries": [
            {
                "m_Name": "Filter by all listed tags",
                "m_Selected": false
            },
            {
                "m_Name": "No Filter",
                "m_Selected": true
            },
            {
                "m_Name": "",
                "m_Selected": false
            },
            {
                "m_Name": "Tag Control...",
                "m_Selected": false
            },
            {
                "m_Name": "",
                "m_Selected": false
            },
            {
                "m_Name": "Unity",
                "m_Selected": false
            },
            {
                "m_Name": "CRASH",
                "m_Selected": false
            }
        ]
    },
    "m_MemoryViewerState": {
        "MemoryWindowHeight": 300.0,
        "MemoryWindowWidth": 170.0,
        "MemoryTypeEnabled": [
            true,
            true,
            true,
            true,
            true,
            true,
            true,
            true,
            true,
            true
        ],
        "MemoryGroup": 2,
        "Behavior": 0
    },
    "m_FilterOptions": {
        "m_Filter": "bbbb",
        "m_UseRegularExpressions": false,
        "m_MatchCase": false
    },
    "m_SymbolPaths": [],
    "m_CaptureVideoSettings": {
        "TimeLimitEnabled": false,
        "TimeLimit": 180,
        "VideoSizeEnabled": false,
        "VideoSizeX": 1280,
        "VideoSizeY": 720,
        "BitRateEnabled": false,
        "BitRateK": 20000,
        "DisplayIdEnabled": false,
        "DisplayId": ""
    }
}