# Blender v3.0.1 OBJ File: ''
# www.blender.org
mtllib BoxFlatWrap.mtl
o BoxModel.002
v -0.763167 -0.005795 -0.722473
v -0.701989 -0.005793 -0.800012
v -0.701969 -0.005795 -0.725215
v -0.681693 -0.005793 -0.800012
v 0.689027 -0.005793 -0.800012
v 0.701965 -0.005795 -0.725215
v 0.587199 -0.005793 -0.800012
v -0.701989 -0.005957 0.799988
v -0.743653 -0.005957 0.799092
v -0.701969 -0.005955 0.725190
v -0.763167 -0.005955 0.722448
v -0.812020 -0.005957 0.793685
v -0.881851 -0.005956 0.782773
v -0.971797 -0.005796 -0.660732
v -1.072144 -0.005795 -0.715528
v -0.951048 -0.005796 -0.672345
v 0.928399 -0.005796 -0.682985
v 1.027995 -0.005794 -0.737726
v 0.951044 -0.005796 -0.672345
v 0.971793 -0.005954 0.660707
v 1.074315 -0.005955 0.714254
v 0.951044 -0.005954 0.672320
v -1.019477 -0.005794 -0.741419
v -0.928403 -0.005796 -0.682985
v -0.960293 -0.005794 -0.762987
v 1.199996 -0.005819 0.306984
v 1.054141 -0.005825 0.544587
v 1.199996 -0.005817 0.263724
v 0.609791 -0.005957 0.799988
v 0.701965 -0.005955 0.725190
v 0.684959 -0.005957 0.799988
v 0.701984 -0.005957 0.799988
v 0.763163 -0.005955 0.722448
v -1.062472 -0.005955 0.720861
v -0.928403 -0.005954 0.682960
v -1.008218 -0.005955 0.746026
v -0.990491 -0.005796 -0.648235
v -1.116882 -0.005796 -0.685906
v -1.006992 -0.005797 -0.634948
v 0.453115 -0.005793 -0.800012
v 0.287401 -0.005793 -0.800012
v -0.377349 -0.005793 -0.800012
v 1.079553 -0.005795 -0.711203
v 0.971793 -0.005796 -0.660732
v 1.122756 -0.005796 -0.681254
v 1.021964 -0.005955 0.740333
v 0.928399 -0.005954 0.682960
v 0.963044 -0.005956 0.762099
v -0.661965 -0.005957 0.799988
v -0.550420 -0.005957 0.799988
v -0.406805 -0.005957 0.799988
v -0.231723 -0.005957 0.799988
v -0.025626 -0.005957 0.799988
v 0.211157 -0.005957 0.799988
v -0.951048 -0.005954 0.672320
v -0.971797 -0.005954 0.660707
v -1.108582 -0.005954 0.692096
v -0.990491 -0.005953 0.648210
v -1.146345 -0.005954 0.659946
v -0.904036 -0.005796 -0.692572
v -0.878125 -0.005795 -0.701033
v -0.895183 -0.005794 -0.780036
v 0.904030 -0.005796 -0.692572
v 0.969437 -0.005794 -0.760071
v 0.878121 -0.005795 -0.701033
v 1.199996 -0.005817 0.219617
v 1.199996 -0.005816 0.174439
v 1.199996 -0.005815 0.127369
v 1.199996 -0.005810 -0.092630
v 1.054141 -0.005800 -0.544612
v 1.199996 -0.005808 -0.155775
v 1.199996 -0.005807 -0.222246
v 1.199996 -0.005805 -0.290965
v 0.990487 -0.005953 0.648210
v 1.118671 -0.005954 0.684485
v 1.006986 -0.005827 0.634924
v -1.021170 -0.005797 -0.620972
v -1.152607 -0.005796 -0.653401
v -1.032919 -0.005798 -0.606414
v -1.178761 -0.005797 -0.618464
v -1.048798 -0.005799 -0.575995
v -1.194662 -0.005799 -0.581928
v -1.054144 -0.005800 -0.544612
v -1.199999 -0.005800 -0.544621
v -1.054144 -0.005825 0.544587
v -1.199999 -0.005819 0.322504
v -1.199999 -0.005823 0.472130
v -0.754654 -0.005793 -0.798581
v -0.826272 -0.005793 -0.791944
v -0.822486 -0.005795 -0.714330
v -0.850876 -0.005795 -0.708304
v 1.199996 -0.005813 0.077177
v 1.199996 -0.005812 0.023809
v 1.199996 -0.005811 -0.032779
v 0.904030 -0.005954 0.692547
v 0.878121 -0.005955 0.701008
v 0.898165 -0.005956 0.779360
v -0.822486 -0.005955 0.714305
v -0.850876 -0.005955 0.708279
v -0.947686 -0.005956 0.766757
v -0.878125 -0.005955 0.701008
v -0.904036 -0.005954 0.692547
v -1.199999 -0.005825 0.544596
v -1.199793 -0.005825 0.551940
v -1.048798 -0.005826 0.575971
v -1.192369 -0.005826 0.589161
v -1.032919 -0.005826 0.606390
v -1.174498 -0.005827 0.625335
v -1.021170 -0.005826 0.620948
v -1.006992 -0.005827 0.634924
v 0.850868 -0.005795 -0.708304
v 0.905389 -0.005794 -0.777762
v 0.822480 -0.005795 -0.714330
v 0.836760 -0.005793 -0.790497
v 0.763163 -0.005795 -0.722473
v 0.764072 -0.005793 -0.798021
v 0.701984 -0.005793 -0.800012
v 1.199996 -0.005804 -0.361784
v 1.199996 -0.005802 -0.434747
v 1.199996 -0.005801 -0.501889
v 1.021165 -0.005826 0.620948
v 1.153979 -0.005953 0.651865
v 1.032915 -0.005826 0.606390
v 1.179686 -0.005826 0.616840
v 1.048794 -0.005826 0.575971
v 1.195122 -0.005826 0.580254
v 1.199996 -0.005825 0.544596
v 0.757898 -0.005957 0.798373
v 0.829416 -0.005957 0.791498
v 0.822480 -0.005955 0.714305
v 0.850868 -0.005955 0.708279
v 0.990487 -0.005796 -0.648235
v 1.006986 -0.005797 -0.634948
v 1.156687 -0.005796 -0.648841
v 1.021165 -0.005797 -0.620972
v 1.181490 -0.005797 -0.613644
v 1.032915 -0.005798 -0.606414
v 1.195958 -0.005799 -0.577085
v 1.048794 -0.005799 -0.575995
v 1.199996 -0.005800 -0.544621
v 1.199996 -0.005800 -0.539709
v -0.000002 -0.005810 -0.000012
v -0.763167 0.005872 -0.722473
v -0.701969 0.005872 -0.725215
v -0.701989 0.005874 -0.800012
v -0.681693 0.005874 -0.800012
v 0.689027 0.005874 -0.800012
v 0.587199 0.005874 -0.800012
v 0.701965 0.005872 -0.725215
v -0.701989 0.005712 0.799988
v -0.701969 0.005714 0.725190
v -0.743653 0.005712 0.799092
v -0.763167 0.005714 0.722448
v -0.812020 0.005712 0.793685
v -0.881851 0.005713 0.782773
v -0.971797 0.005871 -0.660732
v -0.951048 0.005871 -0.672345
v -1.072144 0.005872 -0.715528
v 0.928399 0.005871 -0.682985
v 0.951044 0.005871 -0.672345
v 1.027995 0.005873 -0.737726
v 0.971793 0.005715 0.660707
v 0.951044 0.005715 0.672320
v 1.074315 0.005714 0.714254
v -1.019477 0.005873 -0.741419
v -0.928403 0.005871 -0.682985
v -0.960293 0.005873 -0.762987
v 1.199996 0.005849 0.306984
v 1.199996 0.005851 0.263724
v 1.054141 0.005844 0.544587
v 0.609791 0.005712 0.799988
v 0.684959 0.005712 0.799988
v 0.701965 0.005714 0.725190
v 0.701984 0.005712 0.799988
v 0.763163 0.005714 0.722448
v -1.062472 0.005714 0.720861
v -1.008218 0.005714 0.746026
v -0.928403 0.005715 0.682960
v -0.990491 0.005871 -0.648235
v -1.116882 0.005871 -0.685906
v -1.006992 0.005870 -0.634948
v 0.453115 0.005874 -0.800012
v 0.287401 0.005874 -0.800012
v -0.377349 0.005874 -0.800012
v 1.079553 0.005872 -0.711203
v 0.971793 0.005871 -0.660732
v 1.122756 0.005871 -0.681254
v 1.021964 0.005714 0.740333
v 0.928399 0.005715 0.682960
v 0.963044 0.005713 0.762099
v -0.661965 0.005712 0.799988
v -0.550420 0.005712 0.799988
v -0.406805 0.005712 0.799988
v -0.231723 0.005712 0.799988
v -0.025626 0.005712 0.799988
v 0.211157 0.005712 0.799988
v -0.951048 0.005715 0.672320
v -0.971797 0.005715 0.660707
v -1.108582 0.005715 0.692096
v -0.990491 0.005716 0.648210
v -1.146345 0.005715 0.659946
v -0.904036 0.005871 -0.692572
v -0.878125 0.005872 -0.701033
v -0.895183 0.005873 -0.780036
v 0.904030 0.005871 -0.692572
v 0.969437 0.005873 -0.760071
v 0.878121 0.005872 -0.701033
v 1.199996 0.005851 0.219617
v 1.199996 0.005852 0.174439
v 1.199996 0.005853 0.127369
v 1.199996 0.005858 -0.092630
v 1.199996 0.005860 -0.155775
v 1.054141 0.005868 -0.544612
v 1.199996 0.005861 -0.222246
v 1.199996 0.005863 -0.290965
v 0.990487 0.005716 0.648210
v 1.118671 0.005715 0.684485
v 1.006986 0.005842 0.634924
v -1.021170 0.005870 -0.620972
v -1.152607 0.005871 -0.653401
v -1.032919 0.005870 -0.606414
v -1.178761 0.005870 -0.618464
v -1.048798 0.005869 -0.575995
v -1.194662 0.005869 -0.581928
v -1.054144 0.005868 -0.544612
v -1.199999 0.005868 -0.544621
v -1.054144 0.005844 0.544587
v -1.199999 0.005849 0.322504
v -1.199999 0.005846 0.472130
v -0.754654 0.005874 -0.798581
v -0.826272 0.005874 -0.791944
v -0.822486 0.005872 -0.714330
v -0.850876 0.005872 -0.708304
v 1.199996 0.005855 0.077177
v 1.199996 0.005856 0.023809
v 1.199996 0.005857 -0.032779
v 0.904030 0.005715 0.692547
v 0.878121 0.005714 0.701008
v 0.898165 0.005713 0.779360
v -0.822486 0.005714 0.714305
v -0.850876 0.005714 0.708279
v -0.947686 0.005713 0.766757
v -0.878125 0.005714 0.701008
v -0.904036 0.005715 0.692547
v -1.199999 0.005844 0.544596
v -1.199793 0.005844 0.551940
v -1.048798 0.005843 0.575971
v -1.192369 0.005843 0.589161
v -1.032919 0.005843 0.606390
v -1.174498 0.005842 0.625335
v -1.021170 0.005843 0.620948
v -1.006992 0.005842 0.634924
v 0.850868 0.005872 -0.708304
v 0.905389 0.005873 -0.777762
v 0.822480 0.005872 -0.714330
v 0.836760 0.005874 -0.790497
v 0.763163 0.005872 -0.722473
v 0.764072 0.005874 -0.798021
v 0.701984 0.005874 -0.800012
v 1.199996 0.005864 -0.361784
v 1.199996 0.005866 -0.434747
v 1.199996 0.005867 -0.501889
v 1.021165 0.005843 0.620948
v 1.153979 0.005716 0.651865
v 1.032915 0.005843 0.606390
v 1.179686 0.005843 0.616840
v 1.048794 0.005843 0.575971
v 1.195122 0.005843 0.580254
v 1.199996 0.005844 0.544596
v 0.757898 0.005712 0.798373
v 0.829416 0.005712 0.791498
v 0.822480 0.005714 0.714305
v 0.850868 0.005714 0.708279
v 0.990487 0.005871 -0.648235
v 1.006986 0.005870 -0.634948
v 1.156687 0.005871 -0.648841
v 1.021165 0.005870 -0.620972
v 1.181490 0.005870 -0.613644
v 1.032915 0.005870 -0.606414
v 1.195958 0.005869 -0.577085
v 1.048794 0.005869 -0.575995
v 1.199996 0.005868 -0.544621
v 1.199996 0.005868 -0.539709
v -0.000002 0.005858 -0.000012
vn -0.0000 -1.0000 -0.0000
vn -0.0001 -1.0000 -0.0002
vn 0.0000 -1.0000 -0.0004
vn 0.0000 -1.0000 0.0001
vn 0.0001 -1.0000 -0.0001
vn 0.0001 -1.0000 -0.0002
vn 0.0000 -1.0000 -0.0001
vn 0.0001 -1.0000 0.0000
vn -0.0012 -1.0000 -0.0032
vn 0.0001 -1.0000 -0.0003
vn 0.0006 -1.0000 -0.0039
vn -0.0001 -1.0000 -0.0027
vn 0.0001 -1.0000 0.0003
vn -0.0079 -0.9998 -0.0158
vn -0.0004 -1.0000 -0.0009
vn 0.0006 -1.0000 -0.0028
vn -0.0002 -1.0000 -0.0002
vn -0.0001 -1.0000 -0.0001
vn -0.0004 -1.0000 -0.0018
vn -0.0002 -1.0000 0.0000
vn -0.0000 -1.0000 -0.0011
vn -0.0002 -1.0000 -0.0003
vn -0.0201 -0.9997 0.0170
vn -0.0001 -1.0000 -0.0025
vn 0.0002 -1.0000 -0.0001
vn 0.0001 -1.0000 -0.0012
vn 0.0003 -1.0000 0.0001
vn -0.0000 -1.0000 -0.0005
vn -0.0001 -1.0000 -0.0000
vn 0.0000 1.0000 0.0000
vn 0.0001 1.0000 0.0002
vn -0.0000 1.0000 0.0004
vn 0.0010 1.0000 0.0023
vn -0.0001 1.0000 0.0001
vn -0.0001 1.0000 0.0002
vn 0.0000 1.0000 0.0006
vn 0.0001 1.0000 0.0001
vn -0.0001 1.0000 0.0003
vn -0.0013 1.0000 0.0048
vn 0.0001 1.0000 0.0027
vn -0.0001 1.0000 -0.0003
vn 0.0176 0.9995 0.0280
vn 0.0004 1.0000 0.0009
vn -0.0068 1.0000 -0.0038
vn -0.0001 1.0000 -0.0001
vn 0.0003 1.0000 0.0011
vn -0.0001 1.0000 0.0006
vn -0.0000 1.0000 0.0001
vn 0.0001 1.0000 -0.0002
vn 0.0002 1.0000 -0.0000
vn 0.0000 1.0000 0.0011
vn 0.0004 1.0000 0.0002
vn 0.0201 0.9997 -0.0170
vn -0.0033 1.0000 -0.0026
vn 0.0001 1.0000 0.0025
vn -0.0001 1.0000 0.0012
vn -0.0002 1.0000 -0.0000
vn 0.0001 1.0000 0.0008
vn 0.0002 1.0000 -0.0001
vn -0.0001 1.0000 0.0000
vn 0.6322 0.0000 -0.7748
vn 0.7577 0.0000 -0.6526
vn 1.0000 -0.0000 0.0000
vn 0.0000 0.0000 1.0000
vn -1.0000 0.0000 0.0000
vn 0.0000 0.0000 -1.0000
vn -0.9975 0.0000 -0.0710
vn -0.1314 0.0000 -0.9913
vn -0.2120 0.0000 -0.9773
vn -0.3924 0.0000 -0.9198
vn -0.4976 0.0000 -0.8674
vn -0.0136 0.0000 -0.9999
vn -0.1956 0.0000 0.9807
vn -0.2805 0.0000 0.9599
vn -0.0598 0.0000 -0.9982
vn 0.6198 0.0000 0.7848
vn 0.5026 0.0000 0.8645
vn 0.8798 0.0000 -0.4753
vn 0.9688 0.0000 -0.2477
vn 0.9981 0.0000 -0.0618
vn -0.6143 0.0000 -0.7890
vn 0.3968 0.0000 0.9179
vn -0.9467 0.0000 0.3220
vn -0.8415 0.0000 0.5403
vn 0.7457 0.0000 0.6662
vn 0.3117 0.0000 -0.9502
vn 0.4076 0.0000 -0.9132
vn -0.5904 0.0000 0.8071
vn -0.7150 0.0000 0.6991
vn -0.7149 0.0000 0.6992
vn -0.2982 0.0000 -0.9545
vn 0.3021 0.0000 0.9533
vn 0.2157 0.0000 0.9765
vn 0.0676 0.0000 -0.9977
vn 0.1428 0.0000 -0.9897
vn -0.0107 0.0000 0.9999
vn -0.9937 0.0000 0.1123
vn -0.4759 0.0000 0.8795
vn 0.9977 0.0000 0.0679
vn -0.0502 0.0000 0.9987
vn -0.1167 0.0000 0.9932
vn 0.8696 0.0000 0.4937
vn 0.7459 0.0000 0.6661
vn 0.0160 0.0000 -0.9999
vn 0.5147 0.0000 -0.8574
vn 0.2246 0.0000 -0.9745
vn 0.9644 0.0000 0.2644
vn 0.1349 0.0000 0.9909
vn -0.3729 0.0000 0.9279
vn -0.9999 0.0000 0.0141
vn 0.8698 0.0000 0.4935
vn -0.7401 0.0000 -0.6725
vn 0.0144 0.0000 0.9999
vn 0.0623 0.0000 0.9981
vn -0.8645 0.0000 -0.5026
vn -0.8414 0.0000 0.5404
vn -0.9621 0.0000 -0.2728
usemtl None.002
s 1
f 1//1 2//1 3//1
f 2//1 4//1 3//1
f 5//1 6//1 7//1
f 8//1 9//1 10//2
f 9//1 11//3 10//2
f 9//1 12//1 11//3
f 12//1 13//1 11//3
f 14//1 15//1 16//1
f 17//1 18//1 19//1
f 20//2 21//1 22//1
f 15//1 23//1 16//1
f 23//1 24//4 16//1
f 23//1 25//1 24//4
f 26//1 27//5 28//1
f 29//1 30//6 31//1
f 30//6 32//1 31//1
f 30//6 33//3 32//1
f 34//1 35//7 36//1
f 14//1 37//7 15//1
f 37//7 38//1 15//1
f 37//7 39//8 38//1
f 7//1 6//1 40//1
f 6//1 41//1 40//1
f 6//1 3//1 41//1
f 3//1 42//1 41//1
f 3//1 4//1 42//1
f 18//1 43//1 19//1
f 43//1 44//1 19//1
f 43//1 45//1 44//1
f 21//1 46//1 22//1
f 46//1 47//9 22//1
f 46//1 48//1 47//9
f 8//1 10//2 49//1
f 10//2 50//1 49//1
f 10//2 51//1 50//1
f 51//1 10//2 52//1
f 10//2 53//1 52//1
f 10//2 30//6 53//1
f 30//6 54//1 53//1
f 30//6 29//1 54//1
f 35//7 34//1 55//7
f 34//1 56//10 55//7
f 34//1 57//1 56//10
f 57//1 58//11 56//10
f 57//1 59//12 58//11
f 24//4 25//1 60//13
f 25//1 61//1 60//13
f 25//1 62//1 61//1
f 17//1 63//1 18//1
f 63//1 64//1 18//1
f 63//1 65//10 64//1
f 28//1 27//5 66//1
f 27//5 67//1 66//1
f 27//5 68//1 67//1
f 69//1 70//1 71//1
f 70//1 72//1 71//1
f 70//1 73//1 72//1
f 20//2 74//14 21//1
f 74//14 75//15 21//1
f 74//14 76//16 75//15
f 39//8 77//17 38//1
f 77//17 78//1 38//1
f 77//17 79//1 78//1
f 79//1 80//1 78//1
f 79//1 81//1 80//1
f 81//1 82//1 80//1
f 81//1 83//1 82//1
f 83//1 84//1 82//1
f 83//1 85//18 84//1
f 85//18 86//1 84//1
f 85//18 87//1 86//1
f 2//1 1//1 88//1
f 1//1 89//1 88//1
f 1//1 90//1 89//1
f 90//1 62//1 89//1
f 90//1 91//1 62//1
f 91//1 61//1 62//1
f 68//1 27//5 92//1
f 27//5 93//1 92//1
f 27//5 70//1 93//1
f 70//1 94//1 93//1
f 70//1 69//1 94//1
f 47//9 48//1 95//13
f 48//1 96//19 95//13
f 48//1 97//1 96//19
f 11//3 13//1 98//1
f 13//1 99//1 98//1
f 13//1 100//1 99//1
f 100//1 101//10 99//1
f 100//1 36//1 101//10
f 36//1 102//1 101//10
f 36//1 35//7 102//1
f 87//1 85//18 103//1
f 85//18 104//1 103//1
f 85//18 105//20 104//1
f 105//20 106//1 104//1
f 105//20 107//1 106//1
f 107//1 108//21 106//1
f 107//1 109//22 108//21
f 109//22 59//12 108//21
f 109//22 110//23 59//12
f 110//23 58//11 59//12
f 65//10 111//1 64//1
f 111//1 112//1 64//1
f 111//1 113//1 112//1
f 113//1 114//1 112//1
f 113//1 115//1 114//1
f 115//1 116//1 114//1
f 115//1 6//1 116//1
f 6//1 117//1 116//1
f 6//1 5//1 117//1
f 73//1 70//1 118//1
f 70//1 119//1 118//1
f 70//1 120//1 119//1
f 76//16 121//22 75//15
f 121//22 122//24 75//15
f 121//22 123//25 122//24
f 123//25 124//26 122//24
f 123//25 125//27 124//26
f 125//27 126//1 124//26
f 125//27 27//5 126//1
f 27//5 127//1 126//1
f 27//5 26//1 127//1
f 32//1 33//3 128//1
f 33//3 129//1 128//1
f 33//3 130//28 129//1
f 130//28 97//1 129//1
f 130//28 131//1 97//1
f 131//1 96//19 97//1
f 44//1 45//1 132//6
f 45//1 133//1 132//6
f 45//1 134//1 133//1
f 134//1 135//1 133//1
f 134//1 136//1 135//1
f 136//1 137//29 135//1
f 136//1 138//1 137//29
f 138//1 139//1 137//29
f 138//1 140//1 139//1
f 140//1 70//1 139//1
f 140//1 141//1 70//1
f 141//1 120//1 70//1
f 123//25 76//16 130//28
f 79//1 14//1 61//1
f 109//22 105//20 11//3
f 63//1 19//1 135//1
f 6//1 142//7 3//1
f 85//18 83//1 142//7
f 70//1 27//5 142//7
f 10//2 142//7 30//6
f 143//30 144//30 145//30
f 145//30 144//30 146//30
f 147//30 148//30 149//30
f 150//30 151//31 152//30
f 152//30 151//31 153//32
f 152//30 153//32 154//30
f 154//30 153//32 155//30
f 156//30 157//30 158//30
f 159//30 160//30 161//30
f 162//33 163//30 164//30
f 158//30 157//30 165//30
f 165//30 157//30 166//30
f 165//30 166//30 167//30
f 168//30 169//30 170//34
f 171//30 172//30 173//35
f 173//35 172//30 174//30
f 173//35 174//30 175//36
f 176//30 177//30 178//30
f 156//30 158//30 179//37
f 179//37 158//30 180//30
f 179//37 180//30 181//30
f 148//30 182//30 149//30
f 149//30 182//30 183//30
f 149//30 183//30 144//30
f 144//30 183//30 184//30
f 144//30 184//30 146//30
f 161//30 160//30 185//30
f 185//30 160//30 186//30
f 185//30 186//30 187//30
f 164//30 163//30 188//30
f 188//30 163//30 189//30
f 188//30 189//30 190//30
f 150//30 191//30 151//31
f 151//31 191//30 192//30
f 151//31 192//30 193//30
f 193//30 194//30 151//31
f 151//31 194//30 195//30
f 151//31 195//30 173//35
f 173//35 195//30 196//30
f 173//35 196//30 171//30
f 178//30 197//30 176//30
f 176//30 197//30 198//38
f 176//30 198//38 199//30
f 199//30 198//38 200//39
f 199//30 200//39 201//40
f 166//30 202//41 167//30
f 167//30 202//41 203//30
f 167//30 203//30 204//30
f 159//30 161//30 205//30
f 205//30 161//30 206//30
f 205//30 206//30 207//38
f 169//30 208//30 170//34
f 170//34 208//30 209//30
f 170//34 209//30 210//30
f 211//30 212//30 213//30
f 213//30 212//30 214//30
f 213//30 214//30 215//30
f 162//33 164//30 216//42
f 216//42 164//30 217//43
f 216//42 217//43 218//44
f 181//30 180//30 219//30
f 219//30 180//30 220//30
f 219//30 220//30 221//30
f 221//30 220//30 222//30
f 221//30 222//30 223//30
f 223//30 222//30 224//30
f 223//30 224//30 225//30
f 225//30 224//30 226//30
f 225//30 226//30 227//37
f 227//37 226//30 228//30
f 227//37 228//30 229//30
f 145//30 230//30 143//30
f 143//30 230//30 231//30
f 143//30 231//30 232//30
f 232//30 231//30 204//30
f 232//30 204//30 233//30
f 233//30 204//30 203//30
f 210//30 234//30 170//34
f 170//34 234//30 235//30
f 170//34 235//30 213//30
f 213//30 235//30 236//30
f 213//30 236//30 211//30
f 189//30 237//45 190//30
f 190//30 237//45 238//46
f 190//30 238//46 239//30
f 153//32 240//30 155//30
f 155//30 240//30 241//47
f 155//30 241//47 242//30
f 242//30 241//47 243//48
f 242//30 243//48 177//30
f 177//30 243//48 244//49
f 177//30 244//49 178//30
f 229//30 245//30 227//37
f 227//37 245//30 246//30
f 227//37 246//30 247//50
f 247//50 246//30 248//30
f 247//50 248//30 249//30
f 249//30 248//30 250//51
f 249//30 250//51 251//52
f 251//52 250//51 201//40
f 251//52 201//40 252//53
f 252//53 201//40 200//39
f 207//38 206//30 253//30
f 253//30 206//30 254//30
f 253//30 254//30 255//30
f 255//30 254//30 256//30
f 255//30 256//30 257//30
f 257//30 256//30 258//30
f 257//30 258//30 149//30
f 149//30 258//30 259//30
f 149//30 259//30 147//30
f 215//30 260//30 213//30
f 213//30 260//30 261//30
f 213//30 261//30 262//30
f 218//44 217//43 263//54
f 263//54 217//43 264//55
f 263//54 264//55 265//38
f 265//38 264//55 266//56
f 265//38 266//56 267//57
f 267//57 266//56 268//30
f 267//57 268//30 170//34
f 170//34 268//30 269//30
f 170//34 269//30 168//30
f 174//30 270//30 175//36
f 175//36 270//30 271//30
f 175//36 271//30 272//58
f 272//58 271//30 239//30
f 272//58 239//30 273//30
f 273//30 239//30 238//46
f 186//30 274//30 187//30
f 187//30 274//30 275//59
f 187//30 275//59 276//30
f 276//30 275//59 277//30
f 276//30 277//30 278//30
f 278//30 277//30 279//60
f 278//30 279//60 280//30
f 280//30 279//60 281//30
f 280//30 281//30 282//30
f 282//30 281//30 213//30
f 282//30 213//30 283//30
f 283//30 213//30 262//30
f 162//33 265//38 238//46
f 181//30 221//30 232//30
f 200//39 197//30 241//47
f 253//30 257//30 281//30
f 149//30 144//30 284//48
f 227//37 284//48 225//30
f 213//30 284//48 170//34
f 151//31 173//35 284//48
f 45//61 276//62 134//62
f 94//63 235//63 93//63
f 66//63 169//63 28//63
f 29//64 196//64 54//64
f 86//65 229//65 228//65
f 40//66 148//66 7//66
f 68//63 209//63 67//63
f 84//67 228//65 226//67
f 89//68 204//69 231//68
f 23//70 158//71 165//70
f 2//72 146//66 4//66
f 13//73 242//74 100//74
f 89//68 230//75 88//75
f 75//76 164//77 21//77
f 136//78 280//79 138//79
f 92//63 210//63 68//63
f 140//80 283//63 141//63
f 50//64 191//64 49//64
f 54//64 195//64 53//64
f 15//71 180//81 158//71
f 21//77 188//82 46//82
f 93//63 234//63 92//63
f 106//83 250//84 248//83
f 41//66 182//66 40//66
f 122//85 217//76 75//76
f 64//86 161//87 18//87
f 57//88 201//89 59//90
f 23//70 167//91 25//91
f 48//92 239//93 97//93
f 4//66 184//66 42//66
f 46//82 190//92 48//92
f 51//64 192//64 50//64
f 69//63 236//63 94//63
f 116//94 256//95 114//95
f 49//64 150//96 8//96
f 88//75 145//72 2//72
f 25//91 204//69 62//69
f 119//63 260//63 118//63
f 53//64 194//64 52//64
f 104//97 248//83 246//97
f 7//66 147//66 5//66
f 141//63 262//63 120//63
f 57//88 176//98 199//88
f 26//63 269//99 127//99
f 9//100 154//101 12//101
f 71//63 211//63 69//63
f 120//63 261//63 119//63
f 124//102 264//103 122//85
f 67//63 208//63 66//63
f 5//66 259//104 117//104
f 18//87 185//105 43//105
f 112//106 206//86 64//86
f 127//99 268//107 126//107
f 118//63 215//63 73//63
f 72//63 212//63 71//63
f 43//105 187//61 45//61
f 114//95 254//106 112//106
f 97//93 271//108 129//108
f 36//109 242//74 177//109
f 117//104 258//94 116//94
f 28//63 168//63 26//63
f 52//64 193//64 51//64
f 134//62 278//78 136//78
f 87//65 245//110 229//65
f 31//64 171//64 29//64
f 104//97 245//110 103//110
f 126//107 266//111 124//102
f 138//79 282//80 140//80
f 78//112 180//81 38//81
f 32//113 172//64 31//64
f 73//63 214//63 72//63
f 8//96 152//100 9//100
f 36//109 176//98 34//98
f 128//114 174//113 32//113
f 78//112 222//115 220//112
f 13//73 154//101 155//73
f 129//108 270//114 128//114
f 108//116 201//89 250//84
f 42//66 183//66 41//66
f 80//115 224//117 222//115
f 82//117 226//67 224//117
f 76//16 74//14 47//9
f 74//14 20//2 47//9
f 20//2 22//1 47//9
f 47//9 95//13 96//19
f 96//19 131//1 130//28
f 130//28 33//3 27//5
f 33//3 30//6 27//5
f 30//6 142//7 27//5
f 27//5 125//27 130//28
f 125//27 123//25 130//28
f 123//25 121//22 76//16
f 47//9 96//19 76//16
f 96//19 130//28 76//16
f 61//1 91//1 90//1
f 90//1 1//1 79//1
f 1//1 3//1 79//1
f 3//1 142//7 83//1
f 83//1 81//1 3//1
f 81//1 79//1 3//1
f 79//1 77//17 39//8
f 39//8 37//7 79//1
f 37//7 14//1 79//1
f 14//1 16//1 61//1
f 16//1 24//4 61//1
f 24//4 60//13 61//1
f 61//1 90//1 79//1
f 11//3 98//1 99//1
f 99//1 101//10 102//1
f 102//1 35//7 58//11
f 35//7 55//7 58//11
f 55//7 56//10 58//11
f 58//11 110//23 109//22
f 109//22 107//1 105//20
f 105//20 85//18 11//3
f 85//18 142//7 10//2
f 11//3 85//18 10//2
f 11//3 99//1 58//11
f 99//1 102//1 58//11
f 58//11 109//22 11//3
f 135//1 137//29 139//1
f 139//1 70//1 115//1
f 70//1 142//7 6//1
f 115//1 70//1 6//1
f 115//1 113//1 111//1
f 111//1 65//10 63//1
f 63//1 17//1 19//1
f 19//1 44//1 132//6
f 132//6 133//1 19//1
f 133//1 135//1 19//1
f 135//1 139//1 111//1
f 111//1 139//1 115//1
f 111//1 63//1 135//1
f 162//33 216//42 218//44
f 218//44 263//54 162//33
f 263//54 265//38 162//33
f 265//38 267//57 173//35
f 267//57 170//34 173//35
f 170//34 284//48 173//35
f 173//35 175//36 265//38
f 175//36 272//58 265//38
f 272//58 273//30 238//46
f 238//46 237//45 162//33
f 237//45 189//30 162//33
f 189//30 163//30 162//33
f 272//58 238//46 265//38
f 232//30 233//30 203//30
f 203//30 202//41 166//30
f 166//30 157//30 156//30
f 156//30 179//37 166//30
f 179//37 181//30 166//30
f 181//30 219//30 221//30
f 221//30 223//30 232//30
f 223//30 225//30 232//30
f 225//30 284//48 144//30
f 144//30 143//30 225//30
f 143//30 232//30 225//30
f 232//30 203//30 181//30
f 203//30 166//30 181//30
f 241//47 240//30 153//32
f 153//32 151//31 227//37
f 151//31 284//48 227//37
f 227//37 247//50 153//32
f 247//50 249//30 251//52
f 251//52 252//53 200//39
f 200//39 198//38 197//30
f 197//30 178//30 244//49
f 244//49 243//48 197//30
f 243//48 241//47 197//30
f 241//47 153//32 247//50
f 247//50 251//52 241//47
f 251//52 200//39 241//47
f 281//30 279//60 277//30
f 277//30 275//59 274//30
f 274//30 186//30 160//30
f 160//30 159//30 205//30
f 205//30 207//38 253//30
f 253//30 255//30 257//30
f 257//30 149//30 213//30
f 149//30 284//48 213//30
f 213//30 281//30 257//30
f 281//30 277//30 205//30
f 277//30 274//30 205//30
f 274//30 160//30 205//30
f 205//30 253//30 281//30
f 45//61 187//61 276//62
f 94//63 236//63 235//63
f 66//63 208//63 169//63
f 29//64 171//64 196//64
f 86//65 87//65 229//65
f 40//66 182//66 148//66
f 68//63 210//63 209//63
f 84//67 86//65 228//65
f 89//68 62//69 204//69
f 23//70 15//71 158//71
f 2//72 145//72 146//66
f 13//73 155//73 242//74
f 89//68 231//68 230//75
f 75//76 217//76 164//77
f 136//78 278//78 280//79
f 92//63 234//63 210//63
f 140//80 282//80 283//63
f 50//64 192//64 191//64
f 54//64 196//64 195//64
f 15//71 38//81 180//81
f 21//77 164//77 188//82
f 93//63 235//63 234//63
f 106//83 108//116 250//84
f 41//66 183//66 182//66
f 122//85 264//103 217//76
f 64//86 206//86 161//87
f 57//88 199//88 201//89
f 23//70 165//70 167//91
f 48//92 190//92 239//93
f 4//66 146//66 184//66
f 46//82 188//82 190//92
f 51//64 193//64 192//64
f 69//63 211//63 236//63
f 116//94 258//94 256//95
f 49//64 191//64 150//96
f 88//75 230//75 145//72
f 25//91 167//91 204//69
f 119//63 261//63 260//63
f 53//64 195//64 194//64
f 104//97 106//83 248//83
f 7//66 148//66 147//66
f 141//63 283//63 262//63
f 57//88 34//98 176//98
f 26//63 168//63 269//99
f 9//100 152//100 154//101
f 71//63 212//63 211//63
f 120//63 262//63 261//63
f 124//102 266//111 264//103
f 67//63 209//63 208//63
f 5//66 147//66 259//104
f 18//87 161//87 185//105
f 112//106 254//106 206//86
f 127//99 269//99 268//107
f 118//63 260//63 215//63
f 72//63 214//63 212//63
f 43//105 185//105 187//61
f 114//95 256//95 254//106
f 97//93 239//93 271//108
f 36//109 100//74 242//74
f 117//104 259//104 258//94
f 28//63 169//63 168//63
f 52//64 194//64 193//64
f 134//62 276//62 278//78
f 87//65 103//110 245//110
f 31//64 172//64 171//64
f 104//97 246//97 245//110
f 126//107 268//107 266//111
f 138//79 280//79 282//80
f 78//112 220//112 180//81
f 32//113 174//113 172//64
f 73//63 215//63 214//63
f 8//96 150//96 152//100
f 36//109 177//109 176//98
f 128//114 270//114 174//113
f 78//112 80//115 222//115
f 13//73 12//101 154//101
f 129//108 271//108 270//114
f 108//116 59//90 201//89
f 42//66 184//66 183//66
f 80//115 82//117 224//117
f 82//117 84//67 226//67
