# Blender v3.0.1 OBJ File: ''
# www.blender.org
mtllib BoxFlat.mtl
o Part16v2
v 1.245675 0.186525 0.503987
v 1.249998 0.186525 0.449093
v 1.192827 0.186525 0.449093
v 1.249998 0.186525 -0.000000
v 1.192827 0.186525 -0.449093
v 1.249998 0.186525 -0.449093
v 1.189208 0.186525 -0.495050
v 1.245675 0.186525 -0.503987
v 1.178438 0.186525 -0.539875
v 1.232811 0.186525 -0.557529
v 1.160784 0.186525 -0.582465
v 1.211724 0.186525 -0.608401
v 1.136680 0.186525 -0.621771
v 1.182932 0.186525 -0.655351
v 1.106719 0.186525 -0.656825
v 1.147145 0.186525 -0.697222
v 1.071640 0.186525 -0.686764
v 1.105244 0.186525 -0.732983
v 1.032305 0.186525 -0.710851
v 1.058260 0.186525 -0.761754
v 0.989684 0.186525 -0.728492
v 1.007351 0.186525 -0.782826
v 0.944826 0.186525 -0.739254
v 0.953770 0.186525 -0.795680
v 0.898836 0.186525 -0.742871
v 0.898836 0.186525 -0.800000
v -0.898840 0.186525 -0.742871
v -0.898840 0.186525 -0.800000
v -0.944830 0.186525 -0.739254
v -0.953773 0.186525 -0.795680
v -0.989688 0.186525 -0.728492
v -1.007355 0.186525 -0.782826
v -1.032309 0.186525 -0.710851
v -1.058264 0.186525 -0.761754
v -1.071643 0.186525 -0.686764
v -1.105247 0.186525 -0.732983
v -1.106723 0.186525 -0.656825
v -1.147149 0.186525 -0.697222
v -1.136684 0.186525 -0.621771
v -1.182936 0.186525 -0.655351
v -1.160788 0.186525 -0.582465
v -1.211727 0.186525 -0.608401
v -1.178442 0.186525 -0.539875
v -1.232815 0.186525 -0.557529
v -1.189211 0.186525 -0.495050
v -1.245678 0.186525 -0.503987
v -1.192831 0.186525 -0.449093
v -1.250002 0.186525 -0.449093
v -1.192831 0.186525 0.449093
v -1.250002 0.186525 0.449093
v -1.189211 0.186525 0.495050
v -1.245678 0.186525 0.503987
v -1.178442 0.186525 0.539875
v -1.232815 0.186525 0.557529
v -1.160788 0.186525 0.582465
v -1.211727 0.186525 0.608401
v -1.136684 0.186525 0.621771
v -1.182936 0.186525 0.655351
v -1.106723 0.186525 0.656825
v -1.147149 0.186525 0.697222
v -1.071643 0.186525 0.686764
v -1.105247 0.186525 0.732983
v -1.032309 0.186525 0.710851
v -1.058264 0.186525 0.761753
v -0.989688 0.186525 0.728492
v -1.007355 0.186525 0.782825
v -0.944830 0.186525 0.739254
v -0.953773 0.186525 0.795680
v -0.898840 0.186525 0.742871
v -0.898840 0.186525 0.800000
v 0.898836 0.186525 0.742871
v 0.898836 0.186525 0.800000
v 0.944826 0.186525 0.739254
v 0.953770 0.186525 0.795680
v 0.989684 0.186525 0.728492
v 1.007351 0.186525 0.782825
v 1.032305 0.186525 0.710851
v 1.058260 0.186525 0.761753
v 1.071640 0.186525 0.686764
v 1.105244 0.186525 0.732983
v 1.106719 0.186525 0.656825
v 1.147145 0.186525 0.697222
v 1.136680 0.186525 0.621771
v 1.182932 0.186525 0.655351
v 1.160784 0.186525 0.582465
v 1.211724 0.186525 0.608401
v 1.178438 0.186525 0.539875
v 1.232811 0.186525 0.557529
v 1.189208 0.186525 0.495050
v 1.094388 -0.158545 -0.449093
v 1.143695 0.117511 -0.449093
v 1.091980 -0.158545 -0.479662
v 1.140681 0.117511 -0.487369
v 1.084817 -0.158545 -0.509478
v 1.131711 0.117511 -0.524704
v 1.073074 -0.158545 -0.537807
v 1.117007 0.117511 -0.560176
v 1.057040 -0.158545 -0.563952
v 1.096931 0.117511 -0.592913
v 1.037112 -0.158545 -0.587268
v 1.071978 0.117511 -0.622109
v 1.013778 -0.158545 -0.607183
v 1.042760 0.117511 -0.647044
v 0.987614 -0.158545 -0.623204
v 1.010000 0.117511 -0.667106
v 0.959265 -0.158545 -0.634939
v 0.974502 0.117511 -0.681799
v 0.929427 -0.158545 -0.642097
v 0.937140 0.117511 -0.690762
v 0.898836 -0.158545 -0.644502
v 0.898836 0.117511 -0.693775
v -0.898840 0.117511 -0.693775
v -0.898840 -0.158545 -0.644502
v -0.929431 -0.158545 -0.642097
v -0.937144 0.117511 -0.690762
v -0.959268 -0.158545 -0.634939
v -0.974505 0.117511 -0.681799
v -0.987618 -0.158545 -0.623204
v -1.010004 0.117511 -0.667106
v -1.013782 -0.158545 -0.607183
v -1.042764 0.117511 -0.647044
v -1.037116 -0.158545 -0.587268
v -1.071981 0.117511 -0.622109
v -1.057044 -0.158545 -0.563952
v -1.096935 0.117511 -0.592913
v -1.073077 -0.158545 -0.537807
v -1.117011 0.117511 -0.560176
v -1.084820 -0.158545 -0.509478
v -1.131715 0.117511 -0.524704
v -1.091984 -0.158545 -0.479662
v -1.140684 0.117511 -0.487369
v -1.094391 -0.158545 -0.449093
v -1.143699 0.117511 -0.449093
v -1.143699 0.117511 0.449093
v -1.094391 -0.158545 0.449093
v -1.091984 -0.158545 0.479662
v -1.140684 0.117511 0.487369
v -1.084820 -0.158545 0.509478
v -1.131715 0.117511 0.524703
v -1.073077 -0.158545 0.537807
v -1.117011 0.117511 0.560176
v -1.057044 -0.158545 0.563952
v -1.096935 0.117511 0.592913
v -1.037116 -0.158545 0.587268
v -1.071981 0.117511 0.622109
v -1.013782 -0.158545 0.607182
v -1.042764 0.117511 0.647044
v -0.987618 -0.158545 0.623204
v -1.010004 0.117511 0.667106
v -0.959268 -0.158545 0.634939
v -0.974505 0.117511 0.681799
v -0.929431 -0.158545 0.642097
v -0.937144 0.117511 0.690762
v -0.898840 -0.158545 0.644502
v -0.898840 0.117511 0.693774
v 0.898836 0.117511 0.693774
v 0.898836 -0.158545 0.644502
v 0.929427 -0.158545 0.642097
v 0.937140 0.117511 0.690762
v 0.959265 -0.158545 0.634939
v 0.974502 0.117511 0.681799
v 0.987614 -0.158545 0.623204
v 1.010000 0.117511 0.667106
v 1.013778 -0.158545 0.607182
v 1.042760 0.117511 0.647044
v 1.037112 -0.158545 0.587268
v 1.071978 0.117511 0.622109
v 1.057040 -0.158545 0.563952
v 1.096931 0.117511 0.592913
v 1.073074 -0.158545 0.537807
v 1.117007 0.117511 0.560176
v 1.084817 -0.158545 0.509478
v 1.131711 0.117511 0.524703
v 1.091980 -0.158545 0.479662
v 1.140681 0.117511 0.487369
v 1.094388 -0.158545 0.449093
v 1.143695 0.117511 0.449093
v 1.192827 0.117511 0.449093
v 1.192827 0.117511 -0.449093
v 1.189208 0.117511 -0.495050
v 1.178438 0.117511 -0.539875
v 1.160784 0.117511 -0.582465
v 1.136680 0.117511 -0.621771
v 1.106719 0.117511 -0.656825
v 1.071640 0.117511 -0.686764
v 1.032305 0.117511 -0.710851
v 0.989684 0.117511 -0.728492
v 0.944826 0.117511 -0.739254
v 0.898836 0.117511 -0.742871
v -0.898840 0.117511 -0.742871
v -0.944830 0.117511 -0.739254
v -0.989688 0.117511 -0.728492
v -1.032309 0.117511 -0.710851
v -1.071643 0.117511 -0.686764
v -1.106723 0.117511 -0.656825
v -1.136684 0.117511 -0.621771
v -1.160788 0.117511 -0.582465
v -1.178442 0.117511 -0.539875
v -1.189211 0.117511 -0.495050
v -1.192831 0.117511 -0.449093
v -1.192831 0.117511 0.449093
v -1.189211 0.117511 0.495050
v -1.178442 0.117511 0.539875
v -1.160788 0.117511 0.582465
v -1.136684 0.117511 0.621771
v -1.106723 0.117511 0.656825
v -1.071643 0.117511 0.686764
v -1.032309 0.117511 0.710851
v -0.989688 0.117511 0.728492
v -0.944830 0.117511 0.739254
v -0.898840 0.117511 0.742871
v 0.898836 0.117511 0.742871
v 0.944826 0.117511 0.739254
v 0.989684 0.117511 0.728492
v 1.032305 0.117511 0.710851
v 1.071640 0.117511 0.686764
v 1.106719 0.117511 0.656825
v 1.136680 0.117511 0.621771
v 1.160784 0.117511 0.582465
v 1.178438 0.117511 0.539875
v 1.189208 0.117511 0.495050
v 1.197821 0.181596 -0.000000
v 1.197821 0.181596 -0.449093
v 1.245005 0.181596 -0.000000
v 1.245005 0.181596 -0.449093
v 1.245005 0.142043 -0.000000
v 1.245005 0.142043 -0.449093
v 1.249998 0.142043 -0.000000
v 1.249998 0.142043 -0.449093
v 0.898836 0.181596 -0.747861
v 0.898836 0.181596 -0.795010
v 0.945607 0.181596 -0.744182
v 0.952989 0.181596 -0.790751
v 0.991227 0.181596 -0.733238
v 1.005808 0.181596 -0.778080
v 1.034572 0.181596 -0.715297
v 1.055993 0.181596 -0.757308
v 1.074575 0.181596 -0.690801
v 1.102309 0.181596 -0.728946
v 1.110250 0.181596 -0.660354
v 1.143614 0.181596 -0.693693
v 1.140720 0.181596 -0.624704
v 1.178892 0.181596 -0.652418
v 1.165233 0.181596 -0.584731
v 1.207274 0.181596 -0.606136
v 1.183188 0.181596 -0.541417
v 1.228062 0.181596 -0.555987
v 1.194140 0.181596 -0.495830
v 1.240743 0.181596 -0.503206
v 1.240743 0.142043 -0.503206
v 1.228062 0.142043 -0.555987
v 1.207274 0.142043 -0.606136
v 1.178892 0.142043 -0.652418
v 1.143614 0.142043 -0.693693
v 1.102309 0.142043 -0.728946
v 1.055993 0.142043 -0.757308
v 1.005808 0.142043 -0.778080
v 0.952989 0.142043 -0.790751
v 0.898836 0.142043 -0.795010
v 0.898836 0.142043 -0.800000
v 0.953770 0.142043 -0.795680
v 1.007351 0.142043 -0.782826
v 1.058260 0.142043 -0.761754
v 1.105244 0.142043 -0.732983
v 1.147145 0.142043 -0.697222
v 1.182932 0.142043 -0.655351
v 1.211724 0.142043 -0.608401
v 1.232811 0.142043 -0.557529
v 1.245675 0.142043 -0.503987
v -0.898840 0.181596 -0.747861
v -0.898840 0.181596 -0.795010
v -0.898840 0.142043 -0.795010
v -0.898840 0.142043 -0.800000
v -1.197825 0.181596 -0.449093
v -1.245008 0.181596 -0.449093
v -1.194144 0.181596 -0.495830
v -1.240746 0.181596 -0.503206
v -1.183191 0.181596 -0.541417
v -1.228065 0.181596 -0.555987
v -1.165237 0.181596 -0.584731
v -1.207278 0.181596 -0.606136
v -1.140723 0.181596 -0.624704
v -1.178896 0.181596 -0.652418
v -1.110254 0.181596 -0.660354
v -1.143618 0.181596 -0.693693
v -1.074579 0.181596 -0.690801
v -1.102312 0.181596 -0.728946
v -1.034576 0.181596 -0.715297
v -1.055997 0.181596 -0.757308
v -0.991231 0.181596 -0.733238
v -1.005812 0.181596 -0.778080
v -0.945611 0.181596 -0.744182
v -0.952992 0.181596 -0.790751
v -0.952992 0.142043 -0.790751
v -1.005812 0.142043 -0.778080
v -1.055997 0.142043 -0.757308
v -1.102312 0.142043 -0.728946
v -1.143618 0.142043 -0.693693
v -1.178896 0.142043 -0.652418
v -1.207278 0.142043 -0.606136
v -1.228065 0.142043 -0.555987
v -1.240746 0.142043 -0.503206
v -1.245008 0.142043 -0.449093
v -1.250002 0.142043 -0.449093
v -1.245678 0.142043 -0.503987
v -1.232815 0.142043 -0.557529
v -1.211727 0.142043 -0.608401
v -1.182936 0.142043 -0.655351
v -1.147149 0.142043 -0.697222
v -1.105247 0.142043 -0.732983
v -1.058264 0.142043 -0.761754
v -1.007355 0.142043 -0.782826
v -0.953773 0.142043 -0.795680
v -1.197825 0.181596 0.449093
v -1.245008 0.181596 0.449093
v -1.245008 0.142043 0.449093
v -1.250002 0.142043 0.449093
v -0.898840 0.181596 0.747861
v -0.898840 0.181596 0.795010
v -0.945611 0.181596 0.744182
v -0.952992 0.181596 0.790751
v -0.991231 0.181596 0.733238
v -1.005812 0.181596 0.778080
v -1.034576 0.181596 0.715297
v -1.055997 0.181596 0.757307
v -1.074579 0.181596 0.690801
v -1.102312 0.181596 0.728946
v -1.110254 0.181596 0.660353
v -1.143618 0.181596 0.693693
v -1.140723 0.181596 0.624704
v -1.178896 0.181596 0.652418
v -1.165237 0.181596 0.584731
v -1.207278 0.181596 0.606136
v -1.183191 0.181596 0.541417
v -1.228065 0.181596 0.555987
v -1.194144 0.181596 0.495830
v -1.240746 0.181596 0.503206
v -1.240746 0.142043 0.503206
v -1.228065 0.142043 0.555987
v -1.207278 0.142043 0.606136
v -1.178896 0.142043 0.652418
v -1.143618 0.142043 0.693693
v -1.102312 0.142043 0.728946
v -1.055997 0.142043 0.757307
v -1.005812 0.142043 0.778080
v -0.952992 0.142043 0.790751
v -0.898840 0.142043 0.795010
v -0.898840 0.142043 0.800000
v -0.953773 0.142043 0.795680
v -1.007355 0.142043 0.782825
v -1.058264 0.142043 0.761753
v -1.105247 0.142043 0.732983
v -1.147149 0.142043 0.697222
v -1.182936 0.142043 0.655351
v -1.211727 0.142043 0.608401
v -1.232815 0.142043 0.557529
v -1.245678 0.142043 0.503987
v 0.898836 0.181596 0.747861
v 0.898836 0.181596 0.795010
v 0.898836 0.142043 0.795010
v 0.898836 0.142043 0.800000
v 1.197821 0.181596 0.449093
v 1.245005 0.181596 0.449093
v 1.194140 0.181596 0.495830
v 1.240743 0.181596 0.503206
v 1.183188 0.181596 0.541417
v 1.228062 0.181596 0.555987
v 1.165233 0.181596 0.584731
v 1.207274 0.181596 0.606136
v 1.140720 0.181596 0.624704
v 1.178892 0.181596 0.652418
v 1.110250 0.181596 0.660353
v 1.143614 0.181596 0.693693
v 1.074575 0.181596 0.690801
v 1.102309 0.181596 0.728946
v 1.034572 0.181596 0.715297
v 1.055993 0.181596 0.757307
v 0.991227 0.181596 0.733238
v 1.005808 0.181596 0.778080
v 0.945607 0.181596 0.744182
v 0.952989 0.181596 0.790751
v 0.952989 0.142043 0.790751
v 1.005808 0.142043 0.778080
v 1.055993 0.142043 0.757307
v 1.102309 0.142043 0.728946
v 1.143614 0.142043 0.693693
v 1.178892 0.142043 0.652418
v 1.207274 0.142043 0.606136
v 1.228062 0.142043 0.555987
v 1.240743 0.142043 0.503206
v 1.245005 0.142043 0.449093
v 1.249998 0.142043 0.449093
v 1.245675 0.142043 0.503987
v 1.232811 0.142043 0.557529
v 1.211724 0.142043 0.608401
v 1.182932 0.142043 0.655351
v 1.147145 0.142043 0.697222
v 1.105244 0.142043 0.732983
v 1.058260 0.142043 0.761753
v 1.007351 0.142043 0.782825
v 0.953770 0.142043 0.795680
v 1.098578 -0.163475 0.449093
v -1.098581 -0.163475 0.449093
v 1.098578 -0.163475 -0.449093
v -1.098581 -0.163475 -0.449093
v -0.898840 -0.163475 -0.648690
v -1.096122 -0.163475 -0.480317
v 0.898836 -0.163475 -0.648690
v 0.930082 -0.163475 -0.646232
v 1.088802 -0.163475 0.510772
v 1.076807 -0.163475 0.539708
v 1.060430 -0.163475 0.566413
v 0.960559 -0.163475 0.638920
v 0.989517 -0.163475 0.626935
v 1.016241 -0.163475 0.610570
v 0.930082 -0.163475 0.646232
v 0.898836 -0.163475 0.648689
v -0.898840 -0.163475 0.648689
v -1.096122 -0.163475 0.480316
v -0.960563 -0.163475 0.638920
v -0.989520 -0.163475 0.626935
v -1.016245 -0.163475 0.610570
v 1.096118 -0.163475 0.480316
v 1.040075 -0.163475 0.590229
v -0.930086 -0.163475 0.646232
v -1.088805 -0.163475 -0.510772
v -1.076811 -0.163475 -0.539708
v -1.060434 -0.163475 -0.566413
v -0.989520 -0.163475 -0.626935
v -0.930086 -0.163475 -0.646232
v -0.960563 -0.163475 -0.638921
v -1.040078 -0.163475 0.590229
v -1.060434 -0.163475 0.566413
v -1.076811 -0.163475 0.539708
v -1.088805 -0.163475 0.510772
v -1.040078 -0.163475 -0.590229
v -1.016245 -0.163475 -0.610570
v 1.060430 -0.163475 -0.566413
v 1.076807 -0.163475 -0.539708
v 1.088802 -0.163475 -0.510772
v 0.960559 -0.163475 -0.638921
v 0.989517 -0.163475 -0.626935
v 1.016241 -0.163475 -0.610570
v 1.040075 -0.163475 -0.590229
v 1.096118 -0.163475 -0.480317
v 1.147885 0.112581 0.449093
v 1.144819 0.112581 0.488024
v 1.135696 0.112581 0.525997
v 1.120741 0.112581 0.562077
v 1.100321 0.112581 0.595374
v 1.074940 0.112581 0.625069
v 1.045223 0.112581 0.650432
v 1.011902 0.112581 0.670836
v 0.975796 0.112581 0.685781
v 0.937796 0.112581 0.694897
v 0.898836 0.112581 0.697961
v -0.898840 0.112581 0.697961
v 0.898836 -0.163475 0.648689
v -0.937800 0.112581 0.694897
v -0.975800 0.112581 0.685781
v -1.011906 0.112581 0.670836
v -1.045227 0.112581 0.650432
v -1.074944 0.112581 0.625069
v -1.100325 0.112581 0.595374
v -1.120744 0.112581 0.562077
v -1.135700 0.112581 0.525997
v -1.144823 0.112581 0.488024
v -1.147889 0.112581 0.449093
v -1.147889 0.112582 -0.449093
v -1.144823 0.112582 -0.488024
v -1.135700 0.112582 -0.525997
v -1.120744 0.112582 -0.562077
v -1.100325 0.112582 -0.595374
v -1.074944 0.112582 -0.625070
v -1.045227 0.112582 -0.650432
v -1.011906 0.112582 -0.670836
v -0.975800 0.112582 -0.685781
v -0.937800 0.112582 -0.694898
v -0.898840 0.112582 -0.697962
v 0.898836 0.112582 -0.697962
v 0.937796 0.112582 -0.694898
v 0.975796 0.112582 -0.685781
v 1.011902 0.112582 -0.670836
v 1.045223 0.112582 -0.650432
v 1.074940 0.112582 -0.625070
v 1.100321 0.112582 -0.595374
v 1.120741 0.112582 -0.562077
v 1.135696 0.112582 -0.525997
v 1.144819 0.112582 -0.488024
v 1.147885 0.112582 -0.449093
v 1.098578 -0.163475 -0.449093
v 1.098578 -0.163475 0.449093
v 1.197821 0.112582 -0.449093
v 1.197821 0.112581 0.449093
v 1.194140 0.112581 0.495830
v 1.183188 0.112581 0.541417
v 1.165233 0.112581 0.584731
v 1.140720 0.112581 0.624704
v 1.110250 0.112581 0.660353
v 1.074575 0.112581 0.690801
v 1.034572 0.112581 0.715297
v 0.991227 0.112581 0.733238
v 0.945607 0.112581 0.744182
v 0.898836 0.112581 0.747861
v -0.898840 0.112581 0.747861
v -0.945611 0.112581 0.744182
v -0.991231 0.112581 0.733238
v -1.034576 0.112581 0.715297
v -1.074579 0.112581 0.690801
v -1.110254 0.112581 0.660353
v -1.140723 0.112581 0.624704
v -1.165237 0.112581 0.584731
v -1.183191 0.112581 0.541417
v -1.194144 0.112581 0.495830
v -1.197825 0.112581 0.449093
v -1.197825 0.112582 -0.449093
v -1.194144 0.112582 -0.495830
v -1.183191 0.112582 -0.541417
v -1.165237 0.112582 -0.584731
v -1.140723 0.112582 -0.624704
v -1.110254 0.112582 -0.660354
v -1.074579 0.112582 -0.690801
v -1.034576 0.112582 -0.715297
v -0.991231 0.112582 -0.733238
v -0.945611 0.112582 -0.744182
v -0.898840 0.112582 -0.747861
v 0.898836 0.112582 -0.747861
v 0.945607 0.112582 -0.744182
v 0.991227 0.112582 -0.733238
v 1.034572 0.112582 -0.715297
v 1.074575 0.112582 -0.690801
v 1.110250 0.112582 -0.660354
v 1.140720 0.112582 -0.624704
v 1.165233 0.112582 -0.584731
v 1.183188 0.112582 -0.541417
v 1.194140 0.112582 -0.495830
vn 0.0000 1.0000 0.0000
vn -0.9815 0.1753 0.0773
vn -0.9573 0.1753 0.2300
vn -0.9095 0.1753 0.3770
vn -0.8393 0.1753 0.5147
vn -0.7484 0.1753 0.6397
vn -0.6391 0.1752 0.7489
vn -0.5141 0.1752 0.8396
vn -0.3765 0.1752 0.9097
vn -0.2297 0.1752 0.9574
vn -0.0772 0.1752 0.9815
vn 0.0000 0.1757 0.9844
vn 0.0772 0.1752 0.9815
vn 0.2297 0.1752 0.9574
vn 0.3765 0.1752 0.9097
vn 0.5141 0.1752 0.8396
vn 0.6391 0.1752 0.7489
vn 0.7484 0.1753 0.6397
vn 0.8393 0.1753 0.5147
vn 0.9095 0.1753 0.3770
vn 0.9573 0.1753 0.2300
vn 0.9815 0.1753 0.0773
vn 0.9844 0.1758 0.0000
vn 0.9815 0.1753 -0.0773
vn 0.9573 0.1753 -0.2300
vn 0.9095 0.1753 -0.3770
vn 0.8393 0.1753 -0.5147
vn 0.7484 0.1753 -0.6397
vn 0.6391 0.1752 -0.7489
vn 0.5141 0.1752 -0.8396
vn 0.3765 0.1752 -0.9097
vn 0.2297 0.1752 -0.9574
vn 0.0772 0.1752 -0.9815
vn 0.0000 0.1757 -0.9844
vn -0.0772 0.1752 -0.9815
vn -0.2297 0.1752 -0.9574
vn -0.3765 0.1752 -0.9097
vn -0.5141 0.1752 -0.8396
vn -0.6391 0.1752 -0.7489
vn -0.7484 0.1753 -0.6397
vn -0.8393 0.1753 -0.5147
vn -0.9095 0.1753 -0.3770
vn -0.9573 0.1753 -0.2300
vn -0.9815 0.1753 -0.0773
vn -0.9844 0.1758 0.0000
vn -0.0784 0.0000 0.9969
vn -0.2333 0.0000 0.9724
vn -0.3824 0.0000 0.9240
vn -0.5222 0.0000 0.8528
vn -0.6492 0.0000 0.7606
vn -0.7602 0.0000 0.6497
vn -0.8525 0.0000 0.5228
vn -0.9238 0.0000 0.3829
vn -0.9723 0.0000 0.2336
vn -0.9969 0.0000 0.0785
vn 0.0000 0.0000 1.0000
vn 0.9969 0.0000 0.0785
vn 0.9723 0.0000 0.2336
vn 0.9238 0.0000 0.3829
vn 0.8525 0.0000 0.5228
vn 0.7602 0.0000 0.6497
vn 0.6492 0.0000 0.7606
vn 0.5222 0.0000 0.8528
vn 0.3824 0.0000 0.9240
vn 0.2333 0.0000 0.9724
vn 0.0784 0.0000 0.9969
vn 1.0000 0.0000 0.0000
vn 0.0784 0.0000 -0.9969
vn 0.2333 0.0000 -0.9724
vn 0.3824 0.0000 -0.9240
vn 0.5222 0.0000 -0.8528
vn 0.6492 0.0000 -0.7606
vn 0.7602 0.0000 -0.6497
vn 0.8525 0.0000 -0.5228
vn 0.9238 0.0000 -0.3829
vn 0.9723 0.0000 -0.2336
vn 0.9969 0.0000 -0.0785
vn 0.0000 0.0000 -1.0000
vn -0.9969 0.0000 -0.0785
vn -0.9723 0.0000 -0.2336
vn -0.9238 0.0000 -0.3829
vn -0.8525 0.0000 -0.5228
vn -0.7602 0.0000 -0.6497
vn -0.6492 0.0000 -0.7606
vn -0.5222 0.0000 -0.8528
vn -0.3824 0.0000 -0.9240
vn -0.2333 0.0000 -0.9724
vn -0.0784 0.0000 -0.9969
vn -1.0000 0.0000 0.0000
vn 0.0000 -1.0000 -0.0000
vn 0.3825 0.0000 -0.9240
vn 0.3825 0.0000 0.9240
vn 0.9815 -0.1753 0.0773
vn 0.9573 -0.1753 0.2300
vn 0.9095 -0.1753 0.3770
vn 0.8393 -0.1753 0.5147
vn 0.7484 -0.1753 0.6397
vn 0.6391 -0.1752 0.7489
vn 0.5141 -0.1752 0.8396
vn 0.3765 -0.1752 0.9097
vn 0.2297 -0.1752 0.9574
vn 0.0772 -0.1752 0.9815
vn 0.0000 -0.1757 0.9844
vn -0.0772 -0.1752 0.9815
vn -0.2297 -0.1752 0.9574
vn -0.3765 -0.1752 0.9097
vn -0.5141 -0.1752 0.8396
vn -0.6391 -0.1752 0.7489
vn -0.7484 -0.1753 0.6397
vn -0.8393 -0.1753 0.5147
vn -0.9095 -0.1753 0.3770
vn -0.9573 -0.1753 0.2300
vn -0.9815 -0.1753 0.0773
vn -0.9844 -0.1758 -0.0000
vn -0.9815 -0.1753 -0.0773
vn -0.9573 -0.1753 -0.2300
vn -0.9095 -0.1753 -0.3770
vn -0.8393 -0.1753 -0.5147
vn -0.7484 -0.1753 -0.6397
vn -0.6391 -0.1752 -0.7489
vn -0.5141 -0.1752 -0.8396
vn -0.3765 -0.1752 -0.9097
vn -0.2297 -0.1752 -0.9574
vn -0.0772 -0.1752 -0.9815
vn 0.0000 -0.1757 -0.9844
vn 0.0772 -0.1752 -0.9815
vn 0.2297 -0.1752 -0.9574
vn 0.3765 -0.1752 -0.9097
vn 0.5141 -0.1752 -0.8396
vn 0.6391 -0.1752 -0.7489
vn 0.7484 -0.1753 -0.6397
vn 0.8393 -0.1753 -0.5147
vn 0.9095 -0.1753 -0.3770
vn 0.9573 -0.1753 -0.2300
vn 0.9815 -0.1753 -0.0773
vn 0.9844 -0.1758 -0.0000
usemtl None
s off
f 1//1 2//1 3//1
f 3//1 2//1 4//1
f 3//1 4//1 5//1
f 5//1 4//1 6//1
f 5//1 6//1 7//1
f 7//1 6//1 8//1
f 7//1 8//1 9//1
f 9//1 8//1 10//1
f 9//1 10//1 11//1
f 11//1 10//1 12//1
f 11//1 12//1 13//1
f 13//1 12//1 14//1
f 13//1 14//1 15//1
f 15//1 14//1 16//1
f 15//1 16//1 17//1
f 17//1 16//1 18//1
f 17//1 18//1 19//1
f 19//1 18//1 20//1
f 19//1 20//1 21//1
f 21//1 20//1 22//1
f 21//1 22//1 23//1
f 23//1 22//1 24//1
f 23//1 24//1 25//1
f 25//1 24//1 26//1
f 25//1 26//1 27//1
f 27//1 26//1 28//1
f 27//1 28//1 29//1
f 29//1 28//1 30//1
f 29//1 30//1 31//1
f 31//1 30//1 32//1
f 31//1 32//1 33//1
f 33//1 32//1 34//1
f 33//1 34//1 35//1
f 35//1 34//1 36//1
f 35//1 36//1 37//1
f 37//1 36//1 38//1
f 37//1 38//1 39//1
f 39//1 38//1 40//1
f 39//1 40//1 41//1
f 41//1 40//1 42//1
f 41//1 42//1 43//1
f 43//1 42//1 44//1
f 43//1 44//1 45//1
f 45//1 44//1 46//1
f 45//1 46//1 47//1
f 47//1 46//1 48//1
f 47//1 48//1 49//1
f 49//1 48//1 50//1
f 49//1 50//1 51//1
f 51//1 50//1 52//1
f 51//1 52//1 53//1
f 53//1 52//1 54//1
f 53//1 54//1 55//1
f 55//1 54//1 56//1
f 55//1 56//1 57//1
f 57//1 56//1 58//1
f 57//1 58//1 59//1
f 59//1 58//1 60//1
f 59//1 60//1 61//1
f 61//1 60//1 62//1
f 61//1 62//1 63//1
f 63//1 62//1 64//1
f 63//1 64//1 65//1
f 65//1 64//1 66//1
f 65//1 66//1 67//1
f 67//1 66//1 68//1
f 67//1 68//1 69//1
f 69//1 68//1 70//1
f 69//1 70//1 71//1
f 71//1 70//1 72//1
f 71//1 72//1 73//1
f 73//1 72//1 74//1
f 73//1 74//1 75//1
f 75//1 74//1 76//1
f 75//1 76//1 77//1
f 77//1 76//1 78//1
f 77//1 78//1 79//1
f 79//1 78//1 80//1
f 79//1 80//1 81//1
f 81//1 80//1 82//1
f 81//1 82//1 83//1
f 83//1 82//1 84//1
f 83//1 84//1 85//1
f 85//1 84//1 86//1
f 85//1 86//1 87//1
f 87//1 86//1 88//1
f 87//1 88//1 89//1
f 89//1 88//1 1//1
f 89//1 1//1 3//1
f 90//2 91//2 92//2
f 92//2 91//2 93//2
f 92//3 93//3 94//3
f 94//3 93//3 95//3
f 94//4 95//4 96//4
f 96//4 95//4 97//4
f 96//5 97//5 98//5
f 98//5 97//5 99//5
f 98//6 99//6 100//6
f 100//6 99//6 101//6
f 100//7 101//7 102//7
f 102//7 101//7 103//7
f 102//8 103//8 104//8
f 104//8 103//8 105//8
f 104//9 105//9 106//9
f 106//9 105//9 107//9
f 106//10 107//10 108//10
f 108//10 107//10 109//10
f 108//11 109//11 110//11
f 110//11 109//11 111//11
f 111//12 112//12 110//12
f 110//12 112//12 113//12
f 113//13 112//13 114//13
f 114//13 112//13 115//13
f 114//14 115//14 116//14
f 116//14 115//14 117//14
f 116//15 117//15 118//15
f 118//15 117//15 119//15
f 118//16 119//16 120//16
f 120//16 119//16 121//16
f 120//17 121//17 122//17
f 122//17 121//17 123//17
f 122//18 123//18 124//18
f 124//18 123//18 125//18
f 124//19 125//19 126//19
f 126//19 125//19 127//19
f 126//20 127//20 128//20
f 128//20 127//20 129//20
f 128//21 129//21 130//21
f 130//21 129//21 131//21
f 130//22 131//22 132//22
f 132//22 131//22 133//22
f 133//23 134//23 132//23
f 132//23 134//23 135//23
f 135//24 134//24 136//24
f 136//24 134//24 137//24
f 136//25 137//25 138//25
f 138//25 137//25 139//25
f 138//26 139//26 140//26
f 140//26 139//26 141//26
f 140//27 141//27 142//27
f 142//27 141//27 143//27
f 142//28 143//28 144//28
f 144//28 143//28 145//28
f 144//29 145//29 146//29
f 146//29 145//29 147//29
f 146//30 147//30 148//30
f 148//30 147//30 149//30
f 148//31 149//31 150//31
f 150//31 149//31 151//31
f 150//32 151//32 152//32
f 152//32 151//32 153//32
f 152//33 153//33 154//33
f 154//33 153//33 155//33
f 155//34 156//34 154//34
f 154//34 156//34 157//34
f 157//35 156//35 158//35
f 158//35 156//35 159//35
f 158//36 159//36 160//36
f 160//36 159//36 161//36
f 160//37 161//37 162//37
f 162//37 161//37 163//37
f 162//38 163//38 164//38
f 164//38 163//38 165//38
f 164//39 165//39 166//39
f 166//39 165//39 167//39
f 166//40 167//40 168//40
f 168//40 167//40 169//40
f 168//41 169//41 170//41
f 170//41 169//41 171//41
f 170//42 171//42 172//42
f 172//42 171//42 173//42
f 172//43 173//43 174//43
f 174//43 173//43 175//43
f 174//44 175//44 176//44
f 176//44 175//44 177//44
f 177//45 91//45 176//45
f 176//45 91//45 90//45
f 130//1 132//1 113//1
f 113//1 132//1 110//1
f 108//1 110//1 96//1
f 96//1 110//1 94//1
f 122//1 124//1 113//1
f 154//1 157//1 176//1
f 114//1 116//1 118//1
f 124//1 126//1 113//1
f 113//1 126//1 128//1
f 113//1 128//1 130//1
f 142//1 144//1 140//1
f 140//1 144//1 146//1
f 140//1 146//1 138//1
f 148//1 150//1 135//1
f 135//1 150//1 152//1
f 164//1 166//1 168//1
f 152//1 154//1 135//1
f 135//1 154//1 176//1
f 135//1 176//1 132//1
f 132//1 176//1 90//1
f 132//1 90//1 110//1
f 110//1 90//1 92//1
f 110//1 92//1 94//1
f 148//1 135//1 146//1
f 146//1 135//1 136//1
f 146//1 136//1 138//1
f 164//1 168//1 162//1
f 102//1 96//1 100//1
f 100//1 96//1 98//1
f 102//1 104//1 96//1
f 96//1 104//1 106//1
f 96//1 106//1 108//1
f 114//1 118//1 113//1
f 113//1 118//1 120//1
f 113//1 120//1 122//1
f 162//1 168//1 160//1
f 160//1 168//1 170//1
f 160//1 170//1 172//1
f 157//1 158//1 176//1
f 176//1 158//1 160//1
f 176//1 160//1 174//1
f 174//1 160//1 172//1
f 177//1 178//1 91//1
f 91//1 178//1 179//1
f 91//1 179//1 93//1
f 93//1 179//1 180//1
f 93//1 180//1 95//1
f 95//1 180//1 181//1
f 95//1 181//1 97//1
f 97//1 181//1 182//1
f 97//1 182//1 99//1
f 99//1 182//1 183//1
f 99//1 183//1 101//1
f 101//1 183//1 184//1
f 101//1 184//1 103//1
f 103//1 184//1 185//1
f 103//1 185//1 105//1
f 105//1 185//1 186//1
f 105//1 186//1 107//1
f 107//1 186//1 187//1
f 107//1 187//1 109//1
f 109//1 187//1 188//1
f 109//1 188//1 111//1
f 111//1 188//1 189//1
f 111//1 189//1 112//1
f 112//1 189//1 190//1
f 112//1 190//1 115//1
f 115//1 190//1 191//1
f 115//1 191//1 117//1
f 117//1 191//1 192//1
f 117//1 192//1 119//1
f 119//1 192//1 193//1
f 119//1 193//1 121//1
f 121//1 193//1 194//1
f 121//1 194//1 123//1
f 123//1 194//1 195//1
f 123//1 195//1 125//1
f 125//1 195//1 196//1
f 125//1 196//1 127//1
f 127//1 196//1 197//1
f 127//1 197//1 129//1
f 129//1 197//1 198//1
f 129//1 198//1 131//1
f 131//1 198//1 199//1
f 131//1 199//1 133//1
f 133//1 199//1 200//1
f 133//1 200//1 134//1
f 134//1 200//1 201//1
f 134//1 201//1 137//1
f 137//1 201//1 202//1
f 137//1 202//1 139//1
f 139//1 202//1 203//1
f 139//1 203//1 141//1
f 141//1 203//1 204//1
f 141//1 204//1 143//1
f 143//1 204//1 205//1
f 143//1 205//1 145//1
f 145//1 205//1 206//1
f 145//1 206//1 147//1
f 147//1 206//1 207//1
f 147//1 207//1 149//1
f 149//1 207//1 208//1
f 149//1 208//1 151//1
f 151//1 208//1 209//1
f 151//1 209//1 153//1
f 153//1 209//1 210//1
f 153//1 210//1 155//1
f 155//1 210//1 211//1
f 155//1 211//1 156//1
f 156//1 211//1 212//1
f 156//1 212//1 159//1
f 159//1 212//1 213//1
f 159//1 213//1 161//1
f 161//1 213//1 214//1
f 161//1 214//1 163//1
f 163//1 214//1 215//1
f 163//1 215//1 165//1
f 165//1 215//1 216//1
f 165//1 216//1 167//1
f 167//1 216//1 217//1
f 167//1 217//1 169//1
f 169//1 217//1 218//1
f 169//1 218//1 171//1
f 171//1 218//1 219//1
f 171//1 219//1 173//1
f 173//1 219//1 220//1
f 173//1 220//1 175//1
f 175//1 220//1 221//1
f 175//1 221//1 177//1
f 177//1 221//1 178//1
f 25//46 189//46 23//46
f 23//46 189//46 188//46
f 23//47 188//47 21//47
f 21//47 188//47 187//47
f 21//48 187//48 19//48
f 19//48 187//48 186//48
f 19//49 186//49 17//49
f 17//49 186//49 185//49
f 17//50 185//50 15//50
f 15//50 185//50 184//50
f 15//51 184//51 13//51
f 13//51 184//51 183//51
f 13//52 183//52 11//52
f 11//52 183//52 182//52
f 11//53 182//53 9//53
f 9//53 182//53 181//53
f 9//54 181//54 7//54
f 7//54 181//54 180//54
f 7//55 180//55 5//55
f 5//55 180//55 179//55
f 25//56 27//56 189//56
f 189//56 27//56 190//56
f 47//57 200//57 45//57
f 45//57 200//57 199//57
f 45//58 199//58 43//58
f 43//58 199//58 198//58
f 43//59 198//59 41//59
f 41//59 198//59 197//59
f 41//60 197//60 39//60
f 39//60 197//60 196//60
f 39//61 196//61 37//61
f 37//61 196//61 195//61
f 37//62 195//62 35//62
f 35//62 195//62 194//62
f 35//63 194//63 33//63
f 33//63 194//63 193//63
f 33//64 193//64 31//64
f 31//64 193//64 192//64
f 31//65 192//65 29//65
f 29//65 192//65 191//65
f 29//66 191//66 27//66
f 27//66 191//66 190//66
f 47//67 49//67 200//67
f 200//67 49//67 201//67
f 69//68 211//68 67//68
f 67//68 211//68 210//68
f 67//69 210//69 65//69
f 65//69 210//69 209//69
f 65//70 209//70 63//70
f 63//70 209//70 208//70
f 63//71 208//71 61//71
f 61//71 208//71 207//71
f 61//72 207//72 59//72
f 59//72 207//72 206//72
f 59//73 206//73 57//73
f 57//73 206//73 205//73
f 57//74 205//74 55//74
f 55//74 205//74 204//74
f 55//75 204//75 53//75
f 53//75 204//75 203//75
f 53//76 203//76 51//76
f 51//76 203//76 202//76
f 51//77 202//77 49//77
f 49//77 202//77 201//77
f 69//78 71//78 211//78
f 211//78 71//78 212//78
f 3//79 178//79 89//79
f 89//79 178//79 221//79
f 89//80 221//80 87//80
f 87//80 221//80 220//80
f 87//81 220//81 85//81
f 85//81 220//81 219//81
f 85//82 219//82 83//82
f 83//82 219//82 218//82
f 83//83 218//83 81//83
f 81//83 218//83 217//83
f 81//84 217//84 79//84
f 79//84 217//84 216//84
f 79//85 216//85 77//85
f 77//85 216//85 215//85
f 77//86 215//86 75//86
f 75//86 215//86 214//86
f 75//87 214//87 73//87
f 73//87 214//87 213//87
f 73//88 213//88 71//88
f 71//88 213//88 212//88
f 3//89 5//89 178//89
f 178//89 5//89 179//89
f 222//90 223//90 224//90
f 224//90 223//90 225//90
f 224//89 225//89 226//89
f 226//89 225//89 227//89
f 226//90 227//90 228//90
f 228//90 227//90 229//90
f 228//67 229//67 4//67
f 4//67 229//67 6//67
f 230//90 231//90 232//90
f 232//90 231//90 233//90
f 232//90 233//90 234//90
f 234//90 233//90 235//90
f 234//90 235//90 236//90
f 236//90 235//90 237//90
f 236//90 237//90 238//90
f 238//90 237//90 239//90
f 238//90 239//90 240//90
f 240//90 239//90 241//90
f 240//90 241//90 242//90
f 242//90 241//90 243//90
f 242//90 243//90 244//90
f 244//90 243//90 245//90
f 244//90 245//90 246//90
f 246//90 245//90 247//90
f 246//90 247//90 248//90
f 248//90 247//90 249//90
f 248//90 249//90 223//90
f 223//90 249//90 225//90
f 227//55 225//55 250//55
f 250//55 225//55 249//55
f 250//54 249//54 251//54
f 251//54 249//54 247//54
f 251//53 247//53 252//53
f 252//53 247//53 245//53
f 252//52 245//52 253//52
f 253//52 245//52 243//52
f 253//51 243//51 254//51
f 254//51 243//51 241//51
f 254//50 241//50 255//50
f 255//50 241//50 239//50
f 255//49 239//49 256//49
f 256//49 239//49 237//49
f 256//48 237//48 257//48
f 257//48 237//48 235//48
f 257//47 235//47 258//47
f 258//47 235//47 233//47
f 258//46 233//46 259//46
f 259//46 233//46 231//46
f 259//90 260//90 258//90
f 258//90 260//90 261//90
f 258//90 261//90 257//90
f 257//90 261//90 262//90
f 257//90 262//90 256//90
f 256//90 262//90 263//90
f 256//90 263//90 255//90
f 255//90 263//90 264//90
f 255//90 264//90 254//90
f 254//90 264//90 265//90
f 254//90 265//90 253//90
f 253//90 265//90 266//90
f 253//90 266//90 252//90
f 252//90 266//90 267//90
f 252//90 267//90 251//90
f 251//90 267//90 268//90
f 251//90 268//90 250//90
f 250//90 268//90 269//90
f 250//90 269//90 227//90
f 227//90 269//90 229//90
f 260//68 26//68 24//68
f 260//68 24//68 261//68
f 261//69 24//69 22//69
f 261//69 22//69 262//69
f 262//91 22//91 20//91
f 262//70 20//70 263//70
f 263//71 20//71 18//71
f 263//71 18//71 264//71
f 264//72 18//72 16//72
f 264//72 16//72 265//72
f 265//73 16//73 14//73
f 265//73 14//73 266//73
f 266//74 14//74 12//74
f 266//74 12//74 267//74
f 267//75 12//75 10//75
f 267//75 10//75 268//75
f 268//76 10//76 8//76
f 268//76 8//76 269//76
f 269//77 8//77 6//77
f 269//77 6//77 229//77
f 230//90 270//90 231//90
f 231//90 270//90 271//90
f 231//56 271//56 259//56
f 259//56 271//56 272//56
f 259//90 272//90 260//90
f 260//90 272//90 273//90
f 260//78 273//78 26//78
f 26//78 273//78 28//78
f 274//90 275//90 276//90
f 276//90 275//90 277//90
f 276//90 277//90 278//90
f 278//90 277//90 279//90
f 278//90 279//90 280//90
f 280//90 279//90 281//90
f 280//90 281//90 282//90
f 282//90 281//90 283//90
f 282//90 283//90 284//90
f 284//90 283//90 285//90
f 284//90 285//90 286//90
f 286//90 285//90 287//90
f 286//90 287//90 288//90
f 288//90 287//90 289//90
f 288//90 289//90 290//90
f 290//90 289//90 291//90
f 290//90 291//90 292//90
f 292//90 291//90 293//90
f 292//90 293//90 270//90
f 270//90 293//90 271//90
f 272//66 271//66 294//66
f 294//66 271//66 293//66
f 294//65 293//65 295//65
f 295//65 293//65 291//65
f 295//64 291//64 296//64
f 296//64 291//64 289//64
f 296//63 289//63 297//63
f 297//63 289//63 287//63
f 297//62 287//62 298//62
f 298//62 287//62 285//62
f 298//61 285//61 299//61
f 299//61 285//61 283//61
f 299//60 283//60 300//60
f 300//60 283//60 281//60
f 300//59 281//59 301//59
f 301//59 281//59 279//59
f 301//58 279//58 302//58
f 302//58 279//58 277//58
f 302//57 277//57 303//57
f 303//57 277//57 275//57
f 303//90 304//90 302//90
f 302//90 304//90 305//90
f 302//90 305//90 301//90
f 301//90 305//90 306//90
f 301//90 306//90 300//90
f 300//90 306//90 307//90
f 300//90 307//90 299//90
f 299//90 307//90 308//90
f 299//90 308//90 298//90
f 298//90 308//90 309//90
f 298//90 309//90 297//90
f 297//90 309//90 310//90
f 297//90 310//90 296//90
f 296//90 310//90 311//90
f 296//90 311//90 295//90
f 295//90 311//90 312//90
f 295//90 312//90 294//90
f 294//90 312//90 313//90
f 294//90 313//90 272//90
f 272//90 313//90 273//90
f 304//79 48//79 46//79
f 304//79 46//79 305//79
f 305//80 46//80 44//80
f 305//80 44//80 306//80
f 306//81 44//81 42//81
f 306//81 42//81 307//81
f 307//82 42//82 40//82
f 307//82 40//82 308//82
f 308//83 40//83 38//83
f 308//83 38//83 309//83
f 309//84 38//84 36//84
f 309//84 36//84 310//84
f 310//85 36//85 34//85
f 310//85 34//85 311//85
f 311//86 34//86 32//86
f 311//86 32//86 312//86
f 312//87 32//87 30//87
f 312//87 30//87 313//87
f 313//88 30//88 28//88
f 313//88 28//88 273//88
f 274//90 314//90 275//90
f 275//90 314//90 315//90
f 275//67 315//67 303//67
f 303//67 315//67 316//67
f 303//90 316//90 304//90
f 304//90 316//90 317//90
f 304//89 317//89 48//89
f 48//89 317//89 50//89
f 318//90 319//90 320//90
f 320//90 319//90 321//90
f 320//90 321//90 322//90
f 322//90 321//90 323//90
f 322//90 323//90 324//90
f 324//90 323//90 325//90
f 324//90 325//90 326//90
f 326//90 325//90 327//90
f 326//90 327//90 328//90
f 328//90 327//90 329//90
f 328//90 329//90 330//90
f 330//90 329//90 331//90
f 330//90 331//90 332//90
f 332//90 331//90 333//90
f 332//90 333//90 334//90
f 334//90 333//90 335//90
f 334//90 335//90 336//90
f 336//90 335//90 337//90
f 336//90 337//90 314//90
f 314//90 337//90 315//90
f 316//77 315//77 338//77
f 338//77 315//77 337//77
f 338//76 337//76 339//76
f 339//76 337//76 335//76
f 339//75 335//75 340//75
f 340//75 335//75 333//75
f 340//74 333//74 341//74
f 341//74 333//74 331//74
f 341//73 331//73 342//73
f 342//73 331//73 329//73
f 342//72 329//72 343//72
f 343//72 329//72 327//72
f 343//71 327//71 344//71
f 344//71 327//71 325//71
f 344//70 325//70 345//70
f 345//70 325//70 323//70
f 345//69 323//69 346//69
f 346//69 323//69 321//69
f 346//68 321//68 347//68
f 347//68 321//68 319//68
f 347//90 348//90 346//90
f 346//90 348//90 349//90
f 346//90 349//90 345//90
f 345//90 349//90 350//90
f 345//90 350//90 344//90
f 344//90 350//90 351//90
f 344//90 351//90 343//90
f 343//90 351//90 352//90
f 343//90 352//90 342//90
f 342//90 352//90 353//90
f 342//90 353//90 341//90
f 341//90 353//90 354//90
f 341//90 354//90 340//90
f 340//90 354//90 355//90
f 340//90 355//90 339//90
f 339//90 355//90 356//90
f 339//90 356//90 338//90
f 338//90 356//90 357//90
f 338//90 357//90 316//90
f 316//90 357//90 317//90
f 348//46 70//46 68//46
f 348//46 68//46 349//46
f 349//47 68//47 66//47
f 349//47 66//47 350//47
f 350//48 66//48 64//48
f 350//48 64//48 351//48
f 351//49 64//49 62//49
f 351//49 62//49 352//49
f 352//50 62//50 60//50
f 352//50 60//50 353//50
f 353//51 60//51 58//51
f 353//51 58//51 354//51
f 354//52 58//52 56//52
f 354//52 56//52 355//52
f 355//53 56//53 54//53
f 355//53 54//53 356//53
f 356//54 54//54 52//54
f 356//54 52//54 357//54
f 357//55 52//55 50//55
f 357//55 50//55 317//55
f 318//90 358//90 319//90
f 319//90 358//90 359//90
f 319//78 359//78 347//78
f 347//78 359//78 360//78
f 347//90 360//90 348//90
f 348//90 360//90 361//90
f 348//56 361//56 70//56
f 70//56 361//56 72//56
f 362//90 363//90 364//90
f 364//90 363//90 365//90
f 364//90 365//90 366//90
f 366//90 365//90 367//90
f 366//90 367//90 368//90
f 368//90 367//90 369//90
f 368//90 369//90 370//90
f 370//90 369//90 371//90
f 370//90 371//90 372//90
f 372//90 371//90 373//90
f 372//90 373//90 374//90
f 374//90 373//90 375//90
f 374//90 375//90 376//90
f 376//90 375//90 377//90
f 376//90 377//90 378//90
f 378//90 377//90 379//90
f 378//90 379//90 380//90
f 380//90 379//90 381//90
f 380//90 381//90 358//90
f 358//90 381//90 359//90
f 360//88 359//88 382//88
f 382//88 359//88 381//88
f 382//87 381//87 383//87
f 383//87 381//87 379//87
f 383//86 379//86 384//86
f 384//86 379//86 377//86
f 384//85 377//85 385//85
f 385//85 377//85 375//85
f 385//84 375//84 386//84
f 386//84 375//84 373//84
f 386//83 373//83 387//83
f 387//83 373//83 371//83
f 387//82 371//82 388//82
f 388//82 371//82 369//82
f 388//81 369//81 389//81
f 389//81 369//81 367//81
f 389//80 367//80 390//80
f 390//80 367//80 365//80
f 390//79 365//79 391//79
f 391//79 365//79 363//79
f 391//90 392//90 390//90
f 390//90 392//90 393//90
f 390//90 393//90 389//90
f 389//90 393//90 394//90
f 389//90 394//90 388//90
f 388//90 394//90 395//90
f 388//90 395//90 387//90
f 387//90 395//90 396//90
f 387//90 396//90 386//90
f 386//90 396//90 397//90
f 386//90 397//90 385//90
f 385//90 397//90 398//90
f 385//90 398//90 384//90
f 384//90 398//90 399//90
f 384//90 399//90 383//90
f 383//90 399//90 400//90
f 383//90 400//90 382//90
f 382//90 400//90 401//90
f 382//90 401//90 360//90
f 360//90 401//90 361//90
f 392//57 2//57 1//57
f 392//57 1//57 393//57
f 393//58 1//58 88//58
f 393//58 88//58 394//58
f 394//59 88//59 86//59
f 394//59 86//59 395//59
f 395//60 86//60 84//60
f 395//60 84//60 396//60
f 396//61 84//61 82//61
f 396//61 82//61 397//61
f 397//62 82//62 80//62
f 397//62 80//62 398//62
f 398//63 80//63 78//63
f 398//63 78//63 399//63
f 399//64 78//64 76//64
f 399//92 76//92 400//92
f 400//65 76//65 74//65
f 400//65 74//65 401//65
f 401//66 74//66 72//66
f 401//66 72//66 361//66
f 224//90 363//90 222//90
f 222//90 363//90 362//90
f 226//89 391//89 224//89
f 224//89 391//89 363//89
f 228//90 392//90 226//90
f 226//90 392//90 391//90
f 4//67 2//67 228//67
f 228//67 2//67 392//67
f 402//90 403//90 404//90
f 404//90 403//90 405//90
f 406//90 405//90 407//90
f 405//90 406//90 404//90
f 404//90 406//90 408//90
f 404//90 408//90 409//90
f 410//90 411//90 412//90
f 413//90 402//90 414//90
f 414//90 402//90 415//90
f 413//90 416//90 402//90
f 402//90 416//90 417//90
f 402//90 417//90 403//90
f 403//90 417//90 418//90
f 403//90 418//90 419//90
f 420//90 421//90 422//90
f 402//90 423//90 415//90
f 415//90 423//90 410//90
f 415//90 410//90 424//90
f 424//90 410//90 412//90
f 420//90 422//90 425//90
f 407//90 426//90 406//90
f 406//90 426//90 427//90
f 406//90 427//90 428//90
f 406//90 429//90 430//90
f 430//90 429//90 431//90
f 425//90 422//90 418//90
f 418//90 422//90 432//90
f 418//90 432//90 433//90
f 433//90 434//90 418//90
f 418//90 434//90 435//90
f 418//90 435//90 419//90
f 428//90 436//90 406//90
f 406//90 436//90 437//90
f 406//90 437//90 429//90
f 438//90 439//90 440//90
f 409//90 441//90 404//90
f 404//90 441//90 442//90
f 404//90 442//90 443//90
f 443//90 444//90 404//90
f 404//90 444//90 438//90
f 404//90 438//90 445//90
f 445//90 438//90 440//90
f 402//93 446//93 447//93
f 402//93 447//93 423//93
f 423//94 447//94 448//94
f 423//94 448//94 410//94
f 410//95 448//95 449//95
f 410//95 449//95 411//95
f 411//96 449//96 450//96
f 411//96 450//96 412//96
f 412//97 450//97 451//97
f 412//97 451//97 424//97
f 424//98 451//98 452//98
f 424//98 452//98 415//98
f 415//99 452//99 453//99
f 415//99 453//99 414//99
f 414//100 453//100 454//100
f 414//100 454//100 413//100
f 413//101 454//101 455//101
f 413//101 455//101 416//101
f 416//102 455//102 456//102
f 416//102 456//102 417//102
f 456//103 457//103 458//103
f 458//103 457//103 418//103
f 418//104 457//104 459//104
f 418//104 459//104 425//104
f 425//105 459//105 460//105
f 425//105 460//105 420//105
f 420//106 460//106 461//106
f 420//106 461//106 421//106
f 421//107 461//107 462//107
f 421//107 462//107 422//107
f 422//108 462//108 463//108
f 422//108 463//108 432//108
f 432//109 463//109 464//109
f 432//109 464//109 433//109
f 433//110 464//110 465//110
f 433//110 465//110 434//110
f 434//111 465//111 466//111
f 434//111 466//111 435//111
f 435//112 466//112 467//112
f 435//112 467//112 419//112
f 419//113 467//113 468//113
f 419//113 468//113 403//113
f 468//114 469//114 403//114
f 403//114 469//114 405//114
f 405//115 469//115 470//115
f 405//115 470//115 407//115
f 407//116 470//116 471//116
f 407//116 471//116 426//116
f 426//117 471//117 472//117
f 426//117 472//117 427//117
f 427//118 472//118 473//118
f 427//118 473//118 428//118
f 428//119 473//119 474//119
f 428//119 474//119 436//119
f 436//120 474//120 475//120
f 436//120 475//120 437//120
f 437//121 475//121 476//121
f 437//121 476//121 429//121
f 429//122 476//122 477//122
f 429//122 477//122 431//122
f 431//123 477//123 478//123
f 431//123 478//123 430//123
f 430//124 478//124 479//124
f 430//124 479//124 406//124
f 479//125 480//125 406//125
f 406//125 480//125 408//125
f 408//126 480//126 481//126
f 408//126 481//126 409//126
f 409//127 481//127 482//127
f 409//127 482//127 441//127
f 441//128 482//128 483//128
f 441//128 483//128 442//128
f 442//129 483//129 484//129
f 442//129 484//129 443//129
f 443//130 484//130 485//130
f 443//130 485//130 444//130
f 444//131 485//131 486//131
f 444//131 486//131 438//131
f 438//132 486//132 487//132
f 438//132 487//132 439//132
f 439//133 487//133 488//133
f 439//133 488//133 440//133
f 440//134 488//134 489//134
f 440//134 489//134 445//134
f 445//135 489//135 490//135
f 445//135 490//135 404//135
f 490//136 446//136 491//136
f 491//136 446//136 492//136
f 490//90 493//90 446//90
f 446//90 493//90 494//90
f 446//90 494//90 447//90
f 447//90 494//90 495//90
f 447//90 495//90 448//90
f 448//90 495//90 496//90
f 448//90 496//90 449//90
f 449//90 496//90 497//90
f 449//90 497//90 450//90
f 450//90 497//90 498//90
f 450//90 498//90 451//90
f 451//90 498//90 499//90
f 451//90 499//90 452//90
f 452//90 499//90 500//90
f 452//90 500//90 453//90
f 453//90 500//90 501//90
f 453//90 501//90 454//90
f 454//90 501//90 502//90
f 454//90 502//90 455//90
f 455//90 502//90 503//90
f 455//90 503//90 456//90
f 456//90 503//90 504//90
f 456//90 504//90 457//90
f 457//90 504//90 505//90
f 457//90 505//90 459//90
f 459//90 505//90 506//90
f 459//90 506//90 460//90
f 460//90 506//90 507//90
f 460//90 507//90 461//90
f 461//90 507//90 508//90
f 461//90 508//90 462//90
f 462//90 508//90 509//90
f 462//90 509//90 463//90
f 463//90 509//90 510//90
f 463//90 510//90 464//90
f 464//90 510//90 511//90
f 464//90 511//90 465//90
f 465//90 511//90 512//90
f 465//90 512//90 466//90
f 466//90 512//90 513//90
f 466//90 513//90 467//90
f 467//90 513//90 514//90
f 467//90 514//90 468//90
f 468//90 514//90 515//90
f 468//90 515//90 469//90
f 469//90 515//90 516//90
f 469//90 516//90 470//90
f 470//90 516//90 517//90
f 470//90 517//90 471//90
f 471//90 517//90 518//90
f 471//90 518//90 472//90
f 472//90 518//90 519//90
f 472//90 519//90 473//90
f 473//90 519//90 520//90
f 473//90 520//90 474//90
f 474//90 520//90 521//90
f 474//90 521//90 475//90
f 475//90 521//90 522//90
f 475//90 522//90 476//90
f 476//90 522//90 523//90
f 476//90 523//90 477//90
f 477//90 523//90 524//90
f 477//90 524//90 478//90
f 478//90 524//90 525//90
f 478//90 525//90 479//90
f 479//90 525//90 526//90
f 479//90 526//90 480//90
f 480//90 526//90 527//90
f 480//90 527//90 481//90
f 481//90 527//90 528//90
f 481//90 528//90 482//90
f 482//90 528//90 529//90
f 482//90 529//90 483//90
f 483//90 529//90 530//90
f 483//90 530//90 484//90
f 484//90 530//90 531//90
f 484//90 531//90 485//90
f 485//90 531//90 532//90
f 485//90 532//90 486//90
f 486//90 532//90 533//90
f 486//90 533//90 487//90
f 487//90 533//90 534//90
f 487//90 534//90 488//90
f 488//90 534//90 535//90
f 488//90 535//90 489//90
f 489//90 535//90 536//90
f 489//90 536//90 490//90
f 490//90 536//90 493//90
f 362//67 494//67 222//67
f 222//67 494//67 493//67
f 222//67 493//67 223//67
f 358//66 504//66 503//66
f 358//66 503//66 380//66
f 380//65 503//65 502//65
f 380//65 502//65 378//65
f 378//64 502//64 501//64
f 378//64 501//64 376//64
f 376//63 501//63 500//63
f 376//63 500//63 374//63
f 374//62 500//62 499//62
f 374//62 499//62 372//62
f 372//61 499//61 498//61
f 372//61 498//61 370//61
f 370//60 498//60 497//60
f 370//60 497//60 368//60
f 368//59 497//59 496//59
f 368//59 496//59 366//59
f 366//58 496//58 495//58
f 366//58 495//58 364//58
f 364//57 495//57 494//57
f 364//57 494//57 362//57
f 505//56 504//56 318//56
f 318//56 504//56 358//56
f 314//55 515//55 514//55
f 314//55 514//55 336//55
f 336//54 514//54 513//54
f 336//54 513//54 334//54
f 334//53 513//53 512//53
f 334//53 512//53 332//53
f 332//52 512//52 511//52
f 332//52 511//52 330//52
f 330//51 511//51 510//51
f 330//51 510//51 328//51
f 328//50 510//50 509//50
f 328//50 509//50 326//50
f 326//49 509//49 508//49
f 326//49 508//49 324//49
f 324//48 508//48 507//48
f 324//48 507//48 322//48
f 322//47 507//47 506//47
f 322//47 506//47 320//47
f 320//46 506//46 505//46
f 320//46 505//46 318//46
f 516//89 515//89 274//89
f 274//89 515//89 314//89
f 270//88 526//88 525//88
f 270//88 525//88 292//88
f 292//87 525//87 524//87
f 292//87 524//87 290//87
f 290//86 524//86 523//86
f 290//86 523//86 288//86
f 288//85 523//85 522//85
f 288//85 522//85 286//85
f 286//84 522//84 521//84
f 286//84 521//84 284//84
f 284//83 521//83 520//83
f 284//83 520//83 282//83
f 282//82 520//82 519//82
f 282//82 519//82 280//82
f 280//81 519//81 518//81
f 280//81 518//81 278//81
f 278//80 518//80 517//80
f 278//80 517//80 276//80
f 276//79 517//79 516//79
f 276//79 516//79 274//79
f 527//78 526//78 230//78
f 230//78 526//78 270//78
f 223//77 493//77 536//77
f 223//77 536//77 248//77
f 248//76 536//76 535//76
f 248//76 535//76 246//76
f 246//75 535//75 534//75
f 246//75 534//75 244//75
f 244//74 534//74 533//74
f 244//74 533//74 242//74
f 242//73 533//73 532//73
f 242//73 532//73 240//73
f 240//72 532//72 531//72
f 240//72 531//72 238//72
f 238//71 531//71 530//71
f 238//71 530//71 236//71
f 236//70 530//70 529//70
f 236//70 529//70 234//70
f 234//69 529//69 528//69
f 234//69 528//69 232//69
f 232//68 528//68 527//68
f 232//68 527//68 230//68
