# Blender v3.0.1 OBJ File: ''
# www.blender.org
mtllib sandwitch10x.mtl
o Part3
v -0.271500 0.269400 -0.515808
v -0.325000 0.269400 -0.569308
v -0.271500 0.269400 0.537852
v -0.325000 0.269400 0.591352
v 0.271500 0.269400 0.537852
v 0.325000 0.269400 0.591352
v 0.271500 0.269400 -0.515808
v 0.325000 0.269400 -0.569308
v -0.275000 0.174555 0.541106
v -0.275000 0.177684 0.541352
v -0.275000 0.163542 -0.513450
v -0.275000 0.265900 0.541352
v -0.275000 0.265900 -0.519308
v -0.275000 0.177684 -0.519308
v -0.275000 0.174555 -0.519062
v -0.275000 0.171504 -0.518329
v -0.275000 0.168604 -0.517128
v -0.275000 0.165928 -0.515489
v -0.275000 -0.290220 -0.059689
v -0.275000 -0.290220 0.081733
v -0.275000 0.163542 0.535494
v -0.275000 0.165928 0.537532
v -0.275000 0.168604 0.539172
v -0.275000 0.171504 0.540373
v -0.275000 -0.310140 -0.031240
v -0.275000 -0.316102 -0.014860
v -0.275000 -0.319129 0.002306
v -0.275000 -0.319129 0.019737
v -0.275000 -0.316102 0.036904
v -0.275000 -0.310140 0.053284
v -0.275000 -0.301424 -0.046336
v -0.275000 -0.301424 0.068380
v 0.275000 0.265900 -0.519308
v 0.275000 0.265900 0.541352
v 0.275000 0.177684 -0.519308
v 0.275000 0.177684 0.541352
v 0.275000 0.168604 -0.517128
v 0.275000 0.171504 -0.518329
v 0.275000 0.163542 0.535494
v 0.275000 0.174555 0.541106
v 0.275000 0.171504 0.540373
v 0.275000 0.168604 0.539172
v 0.275000 0.165928 0.537532
v 0.275000 0.174555 -0.519062
v 0.275000 -0.301424 -0.046336
v 0.275000 -0.290220 -0.059689
v 0.275000 -0.290220 0.081733
v 0.275000 0.163542 -0.513450
v 0.275000 0.165928 -0.515489
v 0.275000 -0.310140 0.053284
v 0.275000 -0.316102 0.036904
v 0.275000 -0.310140 -0.031240
v 0.275000 -0.301424 0.068380
v 0.275000 -0.319129 0.019737
v 0.275000 -0.319129 0.002306
v 0.275000 -0.316102 -0.014860
v 0.275000 0.163542 -0.513450
v -0.275000 -0.290220 -0.059689
v -0.325000 0.265900 -0.569308
v 0.325000 0.265900 -0.569308
v 0.325000 0.265900 0.591352
v -0.325000 0.265900 0.591352
v 0.275000 -0.290220 -0.059689
v -0.275000 0.163542 -0.513450
v -0.271500 0.177684 -0.515808
v -0.271500 0.177684 0.537852
v -0.271500 0.166017 -0.510975
v -0.271500 0.166017 0.533019
v -0.271500 -0.287745 0.079258
v -0.271500 0.175103 0.537649
v -0.271500 0.172585 0.537044
v -0.271500 0.170193 0.536054
v -0.271500 0.167985 0.534701
v -0.271500 0.175103 -0.515605
v -0.271500 0.172585 -0.515001
v -0.271500 0.167985 -0.512657
v -0.271500 0.170193 -0.514010
v -0.271500 -0.306968 -0.029761
v -0.271500 -0.298557 -0.044328
v -0.271500 -0.287745 -0.057214
v -0.271500 -0.315642 0.002611
v -0.271500 -0.306968 0.051805
v -0.271500 -0.315642 0.019432
v -0.271500 -0.312721 0.035998
v -0.271500 -0.298557 0.066372
v -0.271500 -0.312721 -0.013954
v 0.271500 0.170193 0.536054
v 0.271500 0.172585 0.537044
v 0.271500 0.177684 -0.515808
v 0.271500 0.177684 0.537852
v 0.271500 0.175103 0.537649
v 0.271500 0.175103 -0.515605
v 0.271500 0.172585 -0.515001
v 0.271500 0.166017 0.533019
v 0.271500 0.170193 -0.514010
v 0.271500 0.167985 0.534701
v 0.271500 -0.298557 -0.044328
v 0.271500 -0.306968 -0.029761
v 0.271500 -0.287745 0.079258
v 0.271500 0.167985 -0.512657
v 0.271500 0.166017 -0.510975
v 0.271500 -0.287745 -0.057214
v 0.271500 -0.312721 0.035998
v 0.271500 -0.306968 0.051805
v 0.271500 -0.315642 0.019432
v 0.271500 -0.315642 0.002611
v 0.271500 -0.312721 -0.013954
v 0.271500 -0.298557 0.066372
vn 0.0000 1.0000 0.0000
vn -1.0000 0.0000 0.0000
vn 1.0000 0.0000 -0.0000
vn 0.0000 0.0000 1.0000
vn -0.0000 0.0000 -1.0000
vn 0.0000 -0.7071 -0.7071
vn 0.0000 -0.7071 0.7071
vn 0.0000 -1.0000 0.0000
vn -0.0000 -0.7661 -0.6428
vn -0.0000 -0.8660 -0.5000
vn -0.0000 -0.9397 -0.3420
vn -0.0000 -0.9848 -0.1737
vn 0.0000 -0.9848 0.1736
vn 0.0000 -0.9397 0.3420
vn 0.0000 -0.8660 0.5000
vn 0.0000 -0.7661 0.6428
vn 0.0000 -0.6495 0.7604
vn 0.0000 -0.5225 0.8526
vn 0.0000 -0.3826 0.9239
vn 0.0000 -0.2336 0.9723
vn -0.0000 -0.0787 0.9969
vn 0.0000 -0.0784 0.9969
vn 0.0000 -0.0787 -0.9969
vn -0.0000 -0.0784 -0.9969
vn 0.0000 -0.2336 -0.9723
vn -0.0000 -0.3826 -0.9239
vn -0.0000 -0.5223 -0.8528
vn -0.0000 -0.5227 -0.8525
vn -0.0000 -0.6494 -0.7604
vn -0.0000 -0.6497 -0.7602
vn 0.0000 0.7071 0.7071
vn -0.0000 0.7071 -0.7071
vn -0.0000 0.7661 -0.6428
vn -0.0000 0.8660 -0.5000
vn -0.0000 0.9397 -0.3420
vn -0.0000 0.9848 -0.1736
vn 0.0000 0.9848 0.1737
vn 0.0000 0.9397 0.3420
vn 0.0000 0.8660 0.5000
vn 0.0000 0.7661 0.6428
vn -0.0000 0.0784 -0.9969
vn -0.0000 0.2336 -0.9723
vn -0.0000 0.3829 -0.9238
vn -0.0000 0.3824 -0.9240
vn -0.0000 0.5225 -0.8526
vn -0.0000 0.6497 -0.7602
vn -0.0000 0.6494 -0.7604
vn -0.0000 0.6495 -0.7604
vn 0.0000 0.6497 0.7602
vn 0.0000 0.6493 0.7605
vn -0.0000 0.6495 0.7604
vn 0.0000 0.5225 0.8526
vn 0.0000 0.3827 0.9239
vn 0.0000 0.2332 0.9724
vn 0.0000 0.0784 0.9969
vn 0.0000 0.0787 0.9969
usemtl None
s 1
f 1//1 2//1 3//1
f 3//1 2//1 4//1
f 3//1 4//1 5//1
f 5//1 4//1 6//1
f 5//1 6//1 7//1
f 7//1 6//1 8//1
f 7//1 8//1 1//1
f 1//1 8//1 2//1
f 9//2 10//2 11//2
f 10//2 12//2 13//2
f 13//2 14//2 10//2
f 10//2 14//2 15//2
f 10//2 15//2 16//2
f 16//2 17//2 10//2
f 10//2 17//2 18//2
f 10//2 18//2 11//2
f 19//2 20//2 11//2
f 11//2 20//2 21//2
f 11//2 21//2 22//2
f 22//2 23//2 11//2
f 11//2 23//2 24//2
f 11//2 24//2 9//2
f 25//2 26//2 27//2
f 27//2 28//2 25//2
f 25//2 28//2 29//2
f 25//2 29//2 30//2
f 19//2 31//2 20//2
f 20//2 31//2 25//2
f 20//2 25//2 32//2
f 32//2 25//2 30//2
f 33//3 34//3 35//3
f 35//3 34//3 36//3
f 37//3 38//3 39//3
f 36//3 40//3 35//3
f 35//3 40//3 41//3
f 35//3 41//3 42//3
f 42//3 43//3 35//3
f 35//3 43//3 39//3
f 35//3 39//3 44//3
f 44//3 39//3 38//3
f 45//3 46//3 47//3
f 47//3 46//3 48//3
f 47//3 48//3 39//3
f 39//3 48//3 49//3
f 39//3 49//3 37//3
f 50//3 51//3 52//3
f 45//3 47//3 52//3
f 52//3 47//3 53//3
f 52//3 53//3 50//3
f 51//3 54//3 52//3
f 52//3 54//3 55//3
f 52//3 55//3 56//3
f 36//4 34//4 10//4
f 10//4 34//4 12//4
f 14//5 13//5 35//5
f 35//5 13//5 33//5
f 57//6 46//6 11//6
f 11//6 46//6 58//6
f 21//7 20//7 39//7
f 39//7 20//7 47//7
f 13//8 59//8 33//8
f 33//8 59//8 60//8
f 33//8 60//8 34//8
f 34//8 60//8 61//8
f 34//8 61//8 12//8
f 12//8 61//8 62//8
f 12//8 62//8 13//8
f 13//8 62//8 59//8
f 60//5 59//5 8//5
f 8//5 59//5 2//5
f 61//3 60//3 6//3
f 6//3 60//3 8//3
f 62//4 61//4 4//4
f 4//4 61//4 6//4
f 59//2 62//2 2//2
f 2//2 62//2 4//2
f 19//9 63//9 45//9
f 19//9 45//9 31//9
f 31//10 45//10 52//10
f 31//10 52//10 25//10
f 25//11 52//11 56//11
f 25//11 56//11 26//11
f 26//12 56//12 55//12
f 26//12 55//12 27//12
f 27//8 55//8 54//8
f 27//8 54//8 28//8
f 28//13 54//13 51//13
f 28//13 51//13 29//13
f 29//14 51//14 50//14
f 29//14 50//14 30//14
f 30//15 50//15 53//15
f 30//15 53//15 32//15
f 32//16 53//16 47//16
f 32//16 47//16 20//16
f 21//17 39//17 43//17
f 21//17 43//17 22//17
f 22//18 43//18 42//18
f 22//18 42//18 23//18
f 23//19 42//19 41//19
f 23//19 41//19 24//19
f 24//20 41//20 40//20
f 24//20 40//20 9//20
f 9//21 40//22 36//22
f 9//21 36//22 10//22
f 14//23 35//24 44//23
f 14//23 44//23 15//24
f 15//25 44//25 38//25
f 15//25 38//25 16//25
f 16//26 38//26 37//26
f 16//26 37//26 17//26
f 17//27 37//27 49//27
f 17//27 49//27 18//28
f 18//29 49//29 48//29
f 18//30 48//30 64//30
f 1//3 3//3 65//3
f 65//3 3//3 66//3
f 67//3 68//3 69//3
f 66//3 70//3 65//3
f 65//3 70//3 71//3
f 65//3 71//3 72//3
f 72//3 73//3 65//3
f 65//3 73//3 68//3
f 65//3 68//3 74//3
f 74//3 68//3 75//3
f 67//3 76//3 68//3
f 68//3 76//3 77//3
f 68//3 77//3 75//3
f 78//3 79//3 69//3
f 69//3 79//3 80//3
f 69//3 80//3 67//3
f 81//3 82//3 83//3
f 83//3 82//3 84//3
f 69//3 85//3 78//3
f 78//3 85//3 82//3
f 78//3 82//3 86//3
f 86//3 82//3 81//3
f 87//2 88//2 89//2
f 5//2 7//2 90//2
f 90//2 7//2 89//2
f 90//2 89//2 91//2
f 91//2 89//2 88//2
f 92//2 93//2 94//2
f 94//2 93//2 95//2
f 92//2 94//2 89//2
f 89//2 94//2 96//2
f 89//2 96//2 87//2
f 97//2 98//2 99//2
f 95//2 100//2 94//2
f 94//2 100//2 101//2
f 94//2 101//2 99//2
f 99//2 101//2 102//2
f 99//2 102//2 97//2
f 103//2 104//2 105//2
f 105//2 104//2 106//2
f 98//2 107//2 99//2
f 99//2 107//2 106//2
f 99//2 106//2 108//2
f 108//2 106//2 104//2
f 5//5 90//5 3//5
f 3//5 90//5 66//5
f 1//4 65//4 7//4
f 7//4 65//4 89//4
f 102//31 101//31 80//31
f 80//31 101//31 67//31
f 69//32 68//32 99//32
f 99//32 68//32 94//32
f 69//33 99//33 85//33
f 85//33 99//33 108//33
f 85//34 108//34 82//34
f 82//34 108//34 104//34
f 82//35 104//35 84//35
f 84//35 104//35 103//35
f 84//36 103//36 83//36
f 83//36 103//36 105//36
f 83//1 105//1 81//1
f 81//1 105//1 106//1
f 81//37 106//37 86//37
f 86//37 106//37 107//37
f 86//38 107//38 78//38
f 78//38 107//38 98//38
f 78//39 98//39 79//39
f 79//39 98//39 97//39
f 79//40 97//40 80//40
f 80//40 97//40 102//40
f 66//41 90//41 70//41
f 70//41 90//41 91//41
f 70//42 91//42 71//42
f 71//42 91//42 88//42
f 71//43 88//44 72//44
f 72//44 88//44 87//44
f 72//45 87//45 73//45
f 73//45 87//45 96//45
f 73//46 96//47 68//48
f 68//48 96//47 94//46
f 67//49 101//49 76//50
f 76//50 101//49 100//51
f 76//52 100//52 77//52
f 77//52 100//52 95//52
f 77//53 95//53 75//53
f 75//53 95//53 93//53
f 75//54 93//54 74//54
f 74//54 93//54 92//54
f 74//55 92//56 65//55
f 65//55 92//56 89//55
